<svg width="36" height="30" viewBox="0 0 36 30" fill="none" xmlns="http://www.w3.org/2000/svg">
<path d="M25.6328 28.2618C25.6328 28.2618 28.2415 30.3396 32.7904 29.5798C37.3392 28.8206 32.1851 21.7965 32.2536 21.7794C32.3222 21.7624 28.1383 22.3375 28.071 22.5673C28.0031 22.7961 25.9514 25.4886 25.9514 25.4886L25.6328 28.2618Z" fill="#E1A277"/>
<path d="M1.00609 4.50816C3.0136 3.36133 5.10065 2.38364 7.26693 1.57581C7.73918 1.39974 7.43023 0.681384 6.95972 0.857314C4.79343 1.66514 2.70668 2.6421 0.698878 3.78965C0.266477 4.03644 0.569329 4.75741 1.00609 4.50816Z" fill="#060606"/>
<path d="M31.4725 21.9744L33.5594 21.4527C34.1983 21.2923 34.8533 21.6849 35.0135 22.3253C35.1737 22.965 34.7811 23.6201 34.1414 23.7804L32.0546 24.3021C31.4141 24.4622 30.7598 24.0697 30.5997 23.4293C30.4394 22.7896 30.8321 22.1345 31.4725 21.9744Z" fill="#E1A277"/>
<path d="M25.6307 28.2713L25.9339 25.6078C25.9339 25.6078 17.8998 23.5937 14.5831 18.1403C11.2674 12.6863 9.73755 0.733003 9.73755 0.733003L0.626581 5.11378C0.626581 5.11378 6.12861 19.4674 11.3718 23.6208C16.6149 27.7744 25.6307 28.2713 25.6307 28.2713Z" fill="#FCFCFC"/>
<path d="M31.7565 25.6415L34.4618 25.0701C35.0782 24.9395 35.6886 25.3371 35.8183 25.9534C35.949 26.5691 35.5512 27.1802 34.9357 27.3101L32.2296 27.8819C31.6139 28.0128 31.0035 27.6153 30.8738 26.999C30.7433 26.3825 31.1408 25.7722 31.7565 25.6415Z" fill="#E1A277"/>
<path d="M32.3295 23.4134L34.4343 22.9683C35.0796 22.8323 35.7191 23.2482 35.855 23.8943C35.992 24.539 35.5752 25.1791 34.9298 25.3152L32.8259 25.7604C32.1805 25.8965 31.5403 25.4805 31.4042 24.8351C31.2673 24.1896 31.6841 23.5495 32.3295 23.4134Z" fill="#E1A277"/>
<path d="M32.3456 27.4792L34.2289 27.0809C34.8063 26.9588 35.3792 27.3316 35.5013 27.9094C35.6233 28.4872 35.2514 29.0595 34.6731 29.1817L32.7904 29.5798C32.2121 29.7023 31.6395 29.3293 31.5175 28.7515C31.3954 28.174 31.7682 27.6012 32.3456 27.4792Z" fill="#E1A277"/>
<path d="M25.8396 25.5523C25.8396 25.5523 27.7516 21.4633 27.6571 19.7993C27.5635 18.1346 31.28 19.472 29.3874 23.1955C27.4955 26.9191 25.8396 25.5523 25.8396 25.5523Z" fill="#E1A277"/>
</svg>
