<svg width="52" height="37" viewBox="0 0 52 37" fill="none" xmlns="http://www.w3.org/2000/svg">
<path d="M0.865234 18.1309C0.865234 28.1432 12.2022 36.2602 26.187 36.2602C40.1711 36.2602 51.5083 28.1432 51.5083 18.1309C51.5083 8.11704 40.1711 0 26.187 0C12.2022 0 0.865234 8.11704 0.865234 18.1309Z" fill="#060606"/>
<path d="M25.1949 25.4945C40.3098 25.4945 51.5091 20.4778 51.5091 20.4778L51.5012 20.47C51.1416 20.2191 39.4579 12.1146 25.6091 12.1146C11.7837 12.1146 1.72452 18.9147 0.959399 19.3915L0.942988 19.3993H0.935958L0.927359 19.4063C0.474852 19.665 10.0799 25.4945 25.1949 25.4945Z" fill="#E1A277"/>
<path d="M0.959399 19.3915C1.64715 19.0632 12.8461 13.8269 25.8438 13.8269C39.0432 13.8269 51.1263 20.2746 51.5012 20.47C51.1416 20.2191 39.4579 12.1146 25.6091 12.1146C11.7837 12.1146 1.72452 18.9147 0.959399 19.3915Z" fill="#B65D4B"/>
<path d="M44.5176 20.1949L44.4824 20.173C44.108 19.937 40.7904 17.9824 37.3016 17.9894C37.1274 17.9894 36.9523 17.9941 36.778 18.0042C34.8296 18.1144 33.2572 18.8702 32.1693 19.6025C31.6261 19.9682 31.2049 20.3278 30.9219 20.5935C30.7805 20.7263 30.6742 20.8358 30.6031 20.9108L30.5249 20.996L30.503 21.0218C30.3632 21.1859 30.117 21.207 29.9521 21.0671C29.7872 20.928 29.7668 20.681 29.906 20.5169C29.9224 20.4974 30.564 19.7424 31.7332 18.9546C32.9016 18.1676 34.6053 17.3454 36.7335 17.2235C36.9234 17.2125 37.1133 17.2079 37.3016 17.2079C41.3226 17.2165 44.9068 19.5228 44.938 19.5361C45.1201 19.6517 45.1733 19.8932 45.0576 20.0753C44.9412 20.2574 44.6997 20.3106 44.5176 20.1949Z" fill="#060606"/>
<path d="M5.44346 19.5361C5.47472 19.5228 9.05886 17.2165 13.0799 17.2079C13.2682 17.2079 13.4581 17.2125 13.648 17.2235C15.7762 17.3454 17.4799 18.1676 18.6483 18.9546C19.8183 19.7424 20.4591 20.4974 20.4756 20.5169C20.6147 20.681 20.5943 20.928 20.4294 21.0671C20.2653 21.207 20.0184 21.1859 19.8792 21.0218L19.8566 20.996C19.6026 20.7052 17.2517 18.2043 13.6035 18.0042C13.4284 17.9941 13.2541 17.9894 13.0799 17.9894C11.2206 17.9878 9.40664 18.538 8.06396 19.0929C7.39262 19.3704 6.83929 19.6478 6.45477 19.8549C6.2633 19.9589 6.11324 20.0448 6.0132 20.1042L5.8991 20.173L5.86393 20.1949C5.68183 20.3106 5.44034 20.2574 5.32389 20.0753C5.20823 19.8932 5.26136 19.6517 5.44346 19.5361Z" fill="#060606"/>
<path d="M46.5445 11.0079C45.2682 8.78525 42.9596 7.21514 40.7049 6.09911C40.2547 5.87637 40.6501 5.2019 41.0995 5.42464C43.4684 6.59695 45.8794 8.28038 47.219 10.6141C47.4698 11.0509 46.7946 11.4456 46.5445 11.0079Z" fill="#FCFCFC"/>
<path d="M37.9117 4.91819C37.4678 4.59229 36.9934 4.38049 36.4541 4.27029C35.9617 4.16947 36.1696 3.41608 36.6612 3.51612C37.2599 3.63882 37.8132 3.88188 38.3064 4.24295C38.7081 4.53759 38.3181 5.21596 37.9117 4.91819Z" fill="#FCFCFC"/>
</svg>
