<svg width="38" height="25" viewBox="0 0 38 25" fill="none" xmlns="http://www.w3.org/2000/svg">
<path d="M4.5 10.5L6.95855 8.76086C6.95855 8.76086 9.19262 13.2878 14.74 15.5683C20.2875 17.8479 30.9331 15.8573 30.9331 15.8573L37.4411 17.3259L26.5 24.5C26.5 24.5 14.3086 25.7471 9.81333 20.8607C5.31925 15.9727 4.5 10.5 4.5 10.5Z" fill="#060606"/>
<path d="M21.0939 19.4856C19.673 19.6927 19.0932 19.5301 17.6575 19.4856C17.1557 19.4707 17.1534 18.7165 17.6575 18.7314C19.0205 18.7736 19.5363 18.9291 20.886 18.7314C21.3776 18.6595 21.5901 19.4129 21.0939 19.4856Z" fill="#FCFCFC"/>
<path d="M6.82753 9.76324C6.82753 9.76324 9.82959 6.53318 11.3989 5.9697C12.9675 5.40543 10.2852 2.50749 7.59673 5.70398C4.90824 8.90047 6.82753 9.76324 6.82753 9.76324Z" fill="#E1A277"/>
<path d="M6.24626 3.08122L5.83362 0.969505C5.70701 0.321611 5.07396 -0.104326 4.42607 0.0222828C3.77896 0.148892 3.35224 0.781938 3.47885 1.42983L3.89149 3.54076C4.0181 4.18866 4.65115 4.61381 5.29904 4.4872C5.94615 4.36138 6.37287 3.72833 6.24626 3.08122Z" fill="#E1A277"/>
<path d="M7.90514 3.30779L7.57065 1.18279C7.46827 0.531767 6.85085 0.0823912 6.19905 0.184773C5.54725 0.287154 5.09864 0.904562 5.20102 1.55636L5.53552 3.68137C5.63791 4.33239 6.25532 4.78177 6.90713 4.67861C7.55893 4.57701 8.0083 3.95959 7.90514 3.30779Z" fill="#E1A277"/>
<path d="M4.41808 4.4785L3.8882 1.76423C3.76707 1.14603 3.16215 0.738846 2.54395 0.859984C1.92654 0.981123 1.51936 1.58526 1.6405 2.20345L2.17038 4.91695C2.29152 5.53514 2.89643 5.94233 3.51384 5.82119C4.13204 5.70083 4.53922 5.0967 4.41808 4.4785Z" fill="#E1A277"/>
<path d="M2.49663 4.65369L2.12696 2.76472C2.01442 2.1856 1.44702 1.8042 0.867905 1.91675C0.288004 2.03085 -0.0933842 2.59668 0.0199387 3.17658L0.389604 5.06634C0.502927 5.64546 1.06954 6.02685 1.64866 5.91353C2.22856 5.80021 2.60995 5.23281 2.49663 4.65369Z" fill="#E1A277"/>
<path d="M4.39928 11.1395C4.39928 11.1395 1.46734 9.55002 0.389604 5.06634C-0.688917 0.581103 7.79116 2.58247 7.78021 2.51213C7.76927 2.44258 8.87358 6.51908 8.68914 6.6707C8.5047 6.8231 6.82753 9.76324 6.82753 9.76324L4.39928 11.1395Z" fill="#E1A277"/>
</svg>
