<svg width="935" height="607" viewBox="0 0 935 607" fill="none" xmlns="http://www.w3.org/2000/svg">
<path fill-rule="evenodd" clip-rule="evenodd" d="M0.253968 47.9657C127.254 48.8407 284.753 49.7156 406.753 49.7156C408.588 49.7156 410.693 49.4816 413.047 49.2199C414.02 49.1117 415.036 48.9988 416.093 48.8958C419.7 48.5439 423.774 48.3089 428.227 48.7787C437.137 49.7186 447.558 53.479 458.823 64.7449C464.43 70.3516 470.348 72.4286 476.17 72.4419C481.996 72.4552 487.733 70.4017 492.973 67.7317C497.112 65.6228 500.934 63.1331 504.241 60.9788C505.121 60.4055 505.964 59.8558 506.768 59.3435C508.677 58.1262 510.361 57.1176 511.766 56.5049C512.469 56.1984 513.106 55.9891 513.669 55.9033C514.232 55.8174 514.728 55.854 515.142 56.0474C515.775 56.3423 516.544 56.7195 517.417 57.1472C520.87 58.8397 525.935 61.3225 530.498 62.6223C533.359 63.4371 536 63.7799 537.916 63.1879C538.871 62.893 539.642 62.3671 540.175 61.5523C540.709 60.7361 541.008 59.621 541 58.1385L540.999 58.0175L541.118 58.0396L541.574 58.1238C541.872 58.1787 542.31 58.2593 542.87 58.3618C543.989 58.5669 545.594 58.8598 547.539 59.2114C551.43 59.9145 556.68 60.8519 562.117 61.7893C567.554 62.7268 573.178 63.6642 577.818 64.3671C582.461 65.0707 586.109 65.5379 587.6 65.5379C589.073 65.5379 590.805 64.8919 592.643 63.8325C594.48 62.7743 596.412 61.31 598.284 59.6873C602.029 56.442 605.525 52.5717 607.521 50.0754C607.655 49.9085 607.805 49.792 607.971 49.7303C608.139 49.6683 608.316 49.6643 608.499 49.7102C608.859 49.8007 609.246 50.0864 609.654 50.5173C610.475 51.382 611.429 52.8825 612.484 54.8006C614.055 57.6577 615.86 61.4632 617.788 65.5273C618.45 66.9244 619.128 68.352 619.815 69.7821C622.502 75.3764 625.343 81.0106 628.073 85.027C629.438 87.0359 630.771 88.633 632.038 89.6185C633.306 90.6047 634.487 90.9634 635.563 90.5447C636.703 90.1014 638.356 89.8351 640.364 89.7226C642.373 89.61 644.744 89.6512 647.325 89.8272C652.487 90.1791 658.492 91.0706 664.122 92.3529C669.75 93.6349 675.01 95.3091 678.677 97.229C680.51 98.1885 681.953 99.2135 682.844 100.288C683.738 101.365 684.084 102.502 683.694 103.67L683.505 103.606C683.865 102.524 683.555 101.458 682.69 100.416C681.824 99.3709 680.408 98.3607 678.584 97.4062C674.939 95.4979 669.699 93.8284 664.077 92.5479C658.457 91.2677 652.462 90.3779 647.312 90.0267C644.736 89.8511 642.373 89.8103 640.375 89.9223C638.374 90.0344 636.746 90.2993 635.636 90.7311C634.463 91.1874 633.206 90.7805 631.915 89.7764C630.624 88.7716 629.277 87.154 627.908 85.1394C625.168 81.109 622.322 75.4619 619.634 69.8687C618.946 68.4356 618.268 67.006 617.605 65.6079C615.678 61.5457 613.877 57.7484 612.309 54.897C611.254 52.9793 610.31 51.4992 609.509 50.655C609.108 50.2314 608.753 49.9804 608.45 49.9042C608.301 49.8667 608.165 49.8718 608.041 49.9179C607.916 49.9642 607.794 50.0548 607.678 50.2004C605.675 52.7041 602.171 56.5837 598.415 59.8385C596.537 61.4658 594.594 62.9389 592.743 64.0058C590.894 65.0714 589.126 65.7379 587.6 65.7379C586.09 65.7379 582.425 65.2676 577.788 64.5649C573.146 63.8616 567.52 62.924 562.083 61.9864C556.645 61.0489 551.395 60.1113 547.504 59.4082C545.558 59.0566 543.953 58.7636 542.834 58.5585C542.274 58.456 541.836 58.3754 541.538 58.3205L541.2 58.2581C541.192 59.7081 540.889 60.8263 540.343 61.6617C539.78 62.5215 538.967 63.0726 537.975 63.379C536 63.9893 533.31 63.6311 530.444 62.8147C525.86 61.5093 520.771 59.0144 517.319 57.3223C516.45 56.8963 515.685 56.5211 515.058 56.2286C514.691 56.0575 514.238 56.0188 513.699 56.101C513.16 56.1832 512.54 56.3854 511.846 56.6882C510.457 57.294 508.784 58.2947 506.875 59.5121C506.075 60.0226 505.233 60.571 504.354 61.1435C501.047 63.2982 497.214 65.7956 493.064 67.9099C487.811 70.5864 482.041 72.6553 476.169 72.6419C470.294 72.6285 464.325 70.5296 458.682 64.8863C447.448 53.6522 437.07 49.9126 428.206 48.9776C423.772 48.5098 419.714 48.7436 416.112 49.0948C415.064 49.1971 414.053 49.3095 413.082 49.4174C410.722 49.6797 408.6 49.9156 406.753 49.9156C284.753 49.9156 127.252 49.0407 0.252626 48.1657L0.253968 47.9657Z" fill="#060606"/>
<path fill-rule="evenodd" clip-rule="evenodd" d="M0.153871 48.5655C127.154 49.4405 284.653 50.3155 406.653 50.3155C408.488 50.3155 410.593 50.0815 412.947 49.8198C413.92 49.7116 414.936 49.5987 415.993 49.4956C419.6 49.1438 423.673 48.9088 428.127 49.3785C437.037 50.3185 447.457 54.0789 458.723 65.3448C464.33 70.9515 470.248 73.0284 476.07 73.0417C481.896 73.055 487.633 71.0016 492.873 68.3316C497.012 66.2226 500.834 63.7329 504.14 61.5787C505.021 61.0053 505.864 60.4557 506.668 59.9433C508.576 58.7261 510.261 57.7174 511.666 57.1047C512.369 56.7983 513.006 56.589 513.569 56.5031C514.132 56.4173 514.628 56.4539 515.042 56.6472C515.675 56.9421 516.444 57.3194 517.317 57.7471C520.77 59.4396 525.835 61.9224 530.398 63.2222C533.259 64.037 535.9 64.3798 537.816 63.7877C538.77 63.4929 539.542 62.9669 540.075 62.1521C540.609 61.3359 540.908 60.2209 540.9 58.7383L540.899 58.6174L541.018 58.6394L541.474 58.7236C541.772 58.7786 542.21 58.8591 542.77 58.9617C543.889 59.1667 545.494 59.4597 547.439 59.8112C551.33 60.5143 556.579 61.4518 562.017 62.3892C567.454 63.3267 573.078 64.264 577.718 64.967C582.361 65.6706 586.009 66.1377 587.499 66.1377C588.973 66.1377 590.705 65.4918 592.543 64.4324C594.379 63.3742 596.312 61.9098 598.184 60.2872C601.929 57.0419 605.424 53.1715 607.421 50.6753C607.555 50.5083 607.705 50.3919 607.871 50.3302C608.039 50.2682 608.216 50.2642 608.399 50.3101C608.759 50.4006 609.146 50.6863 609.554 51.1172C610.375 51.9819 611.329 53.4823 612.384 55.4005C613.955 58.2575 615.76 62.0631 617.688 66.1272C618.35 67.5242 619.027 68.9518 619.715 70.3819C622.402 75.9762 625.243 81.6104 627.973 85.6269C629.338 87.6357 630.671 89.2329 631.938 90.2184C633.206 91.2046 634.387 91.5633 635.463 91.1445C636.603 90.7013 638.256 90.435 640.263 90.3225C642.273 90.2099 644.644 90.2511 647.225 90.427C652.387 90.779 658.392 91.6704 664.022 92.9527C669.65 94.2348 674.91 95.9089 678.577 97.8288C680.41 98.7884 681.853 99.8133 682.744 100.888C683.638 101.965 683.983 103.102 683.594 104.269L683.404 104.206C683.765 103.124 683.455 102.058 682.59 101.015C681.724 99.9707 680.308 98.9605 678.484 98.006C674.839 96.0978 669.599 94.4282 663.977 93.1478C658.357 91.8676 652.362 90.9778 647.211 90.6266C644.636 90.451 642.273 90.4102 640.275 90.5222C638.274 90.6343 636.646 90.8992 635.536 91.3309C634.363 91.7872 633.106 91.3803 631.815 90.3763C630.523 89.3715 629.177 87.7538 627.807 85.7393C625.068 81.7088 622.222 76.0618 619.534 70.4686C618.846 69.0354 618.168 67.6059 617.505 66.2077C615.578 62.1455 613.777 58.3482 612.209 55.4969C611.154 53.5791 610.21 52.0991 609.409 51.2548C609.007 50.8312 608.653 50.5803 608.35 50.504C608.201 50.4666 608.065 50.4716 607.941 50.5177C607.816 50.5641 607.694 50.6547 607.578 50.8002C605.575 53.304 602.07 57.1836 598.315 60.4383C596.437 62.0657 594.494 63.5388 592.643 64.6056C590.794 65.6712 589.026 66.3377 587.499 66.3377C585.99 66.3377 582.325 65.8674 577.688 65.1647C573.046 64.4615 567.42 63.5238 561.983 62.5863C556.545 61.6487 551.295 60.7112 547.404 60.008C545.458 59.6565 543.853 59.3635 542.734 59.1584C542.174 59.0558 541.736 58.9753 541.438 58.9203L541.1 58.8579C541.092 60.3079 540.789 61.4262 540.243 62.2616C539.68 63.1214 538.867 63.6725 537.875 63.9788C535.9 64.5892 533.21 64.2309 530.343 63.4145C525.76 62.1091 520.671 59.6143 517.219 57.9222C516.35 57.4961 515.585 57.121 514.958 56.8285C514.591 56.6573 514.138 56.6186 513.599 56.7008C513.06 56.7831 512.44 56.9852 511.746 57.2881C510.357 57.8938 508.684 58.8946 506.775 60.112C505.975 60.6225 505.133 61.1708 504.254 61.7433C500.947 63.8981 497.113 66.3955 492.964 68.5098C487.711 71.1862 481.941 73.2551 476.069 73.2417C470.194 73.2283 464.225 71.1295 458.582 65.4862C447.348 54.2521 436.97 50.5125 428.106 49.5774C423.672 49.1097 419.614 49.3434 416.012 49.6947C414.964 49.7969 413.953 49.9093 412.982 50.0172C410.622 50.2796 408.5 50.5155 406.653 50.5155C284.652 50.5155 127.152 49.6405 0.152528 48.7655L0.153871 48.5655Z" fill="#060606"/>
<path fill-rule="evenodd" clip-rule="evenodd" d="M0.349794 47.7037C127.313 48.5509 284.768 49.3981 406.733 49.3981C408.579 49.3981 410.701 49.1696 413.06 48.9156C414.03 48.8111 415.041 48.7023 416.089 48.6033C419.69 48.2632 423.747 48.0369 428.179 48.4898C437.041 49.3952 447.416 53.0161 458.647 63.8937C464.289 69.3579 470.255 71.3901 476.129 71.4031C481.999 71.4161 487.768 69.4128 493.019 66.8213C497.167 64.7741 501 62.356 504.306 60.2696C505.184 59.7152 506.026 59.1843 506.826 58.69C508.735 57.5112 510.407 56.5422 511.796 55.9557C512.49 55.6625 513.109 55.4667 513.648 55.3871C514.187 55.3075 514.639 55.345 515.006 55.5107C515.633 55.7937 516.398 56.1567 517.266 56.5689L517.267 56.5697C520.718 58.2081 525.806 60.6238 530.388 61.8878C533.253 62.6782 535.943 63.0251 537.917 62.4341C538.908 62.1375 539.722 61.6039 540.284 60.7714C540.83 59.9625 541.133 58.8798 541.141 57.4758L541.479 57.5362C541.777 57.5894 542.215 57.6674 542.774 57.7667C543.893 57.9653 545.498 58.2489 547.443 58.5894C551.333 59.2702 556.582 60.178 562.018 61.0858C567.454 61.9936 573.078 62.9015 577.718 63.5824C582.355 64.2628 586.018 64.7182 587.527 64.7182C589.053 64.7182 590.821 64.0728 592.669 63.0411C594.52 62.0081 596.462 60.5817 598.34 59.006C602.094 55.8546 605.597 52.0981 607.599 49.6738C607.716 49.5328 607.838 49.4451 607.963 49.4002C608.087 49.3556 608.222 49.3507 608.372 49.387C608.675 49.4608 609.029 49.7038 609.431 50.1139C610.231 50.9314 611.175 52.3645 612.229 54.2214C613.797 56.9822 615.597 60.659 617.524 64.5923L617.525 64.5944C618.187 65.9475 618.865 67.331 619.553 68.7179C622.239 74.1336 625.085 79.6015 627.824 83.504C629.192 85.4546 630.539 87.021 631.83 87.9938C633.121 88.966 634.377 89.36 635.55 88.9182C636.66 88.5002 638.287 88.2437 640.287 88.1351C642.285 88.0267 644.647 88.0662 647.222 88.2362C652.371 88.5763 658.364 89.4378 663.983 90.6774C669.603 91.9172 674.842 93.5338 678.486 95.3815C680.309 96.3057 681.724 97.2838 682.591 98.2954C683.455 99.3044 683.765 100.337 683.405 101.385L683.594 101.446C683.983 100.315 683.638 99.2146 682.745 98.1718C681.854 97.1314 680.411 96.139 678.578 95.2099C674.912 93.3509 669.654 91.7299 664.027 90.4886C658.399 89.2469 652.396 88.3838 647.236 88.043C644.655 87.8726 642.285 87.8327 640.276 87.9418C638.269 88.0507 636.617 88.3086 635.477 88.7377C634.401 89.1432 633.22 88.7958 631.953 87.841C630.686 86.8868 629.354 85.3403 627.989 83.3952C625.26 79.5062 622.42 74.0508 619.733 68.6341C619.047 67.2506 618.37 65.8695 617.709 64.5179L617.707 64.5143C615.78 60.5792 613.975 56.8944 612.404 54.1281C611.35 52.2707 610.396 50.8179 609.576 49.9807C609.167 49.5634 608.78 49.2868 608.42 49.1992C608.238 49.1547 608.061 49.1586 607.893 49.2186C607.727 49.2784 607.577 49.3911 607.443 49.5528C605.447 51.9698 601.952 55.7174 598.209 58.8596C596.337 60.4308 594.405 61.8487 592.57 62.8733C590.732 63.8991 589.001 64.5245 587.527 64.5245C586.037 64.5245 582.391 64.0722 577.748 63.391C573.11 62.7103 567.487 61.8027 562.052 60.895C556.616 59.9873 551.368 59.0796 547.479 58.3988C545.534 58.0584 543.929 57.7747 542.81 57.5762C542.251 57.4769 541.813 57.3989 541.515 57.3457L541.059 57.2642L540.94 57.2429L540.941 57.3599C540.949 58.7954 540.65 59.8751 540.117 60.6654C539.584 61.4544 538.812 61.9636 537.858 62.2491C535.943 62.8224 533.302 62.4904 530.442 61.7015C525.88 60.443 520.817 58.0389 517.365 56.4002C516.493 55.986 515.723 55.6208 515.091 55.3352C514.676 55.148 514.181 55.1126 513.618 55.1957C513.055 55.2788 512.418 55.4815 511.716 55.7782C510.311 56.3715 508.627 57.3481 506.719 58.5267C505.915 59.0228 505.072 59.555 504.192 60.1102C500.886 62.1961 497.066 64.6067 492.928 66.6488C487.69 69.234 481.954 71.2223 476.13 71.2094C470.31 71.1966 464.393 69.1855 458.788 63.7567C447.526 52.8484 437.108 49.2073 428.2 48.2972C423.748 47.8423 419.677 48.0699 416.07 48.4106C415.013 48.5104 413.998 48.6197 413.025 48.7244C410.672 48.9778 408.568 49.2044 406.733 49.2044C284.768 49.2044 127.314 48.3572 0.351136 47.51L0.349794 47.7037Z" fill="#060606"/>
<path d="M440.053 39.0002C439.396 41.083 438.794 43.1807 438.247 45.2947C438.121 45.7808 437.367 45.5753 437.494 45.0876C438.04 42.972 438.642 40.8751 439.3 38.7923C439.451 38.3148 440.205 38.5188 440.053 39.0002Z" fill="#FCFCFC"/>
<path d="M428.779 40.0953C427.358 40.3024 425.939 40.3923 424.504 40.3477C424.002 40.3329 424 39.5513 424.504 39.5662C425.867 39.6084 427.221 39.5388 428.571 39.3411C429.062 39.2692 429.275 40.0226 428.779 40.0953Z" fill="#FCFCFC"/>
<path d="M408.334 49.6772L409.334 50.1097C409.334 50.1097 416.13 43.8555 422.739 43.0937C429.348 42.3329 441.334 46.7304 441.334 46.7304L440.334 36.6097C440.334 36.6097 425.163 33.4872 418.946 36.9403C412.729 40.3952 408.334 49.6772 408.334 49.6772Z" fill="#060606"/>
<path d="M410.786 45.4134C410.786 45.4134 407.305 45.5378 404.254 49.0802C401.201 52.6237 410.09 54.5923 410.048 54.6506C410.006 54.7081 412.897 51.5426 412.792 51.3248C412.688 51.1063 412.446 47.7253 412.446 47.7253L410.786 45.4134Z" fill="#E1A277"/>
<path d="M407.777 51.3946L406.046 53.5934C405.651 54.094 404.897 54.1907 404.37 53.8077C403.844 53.4251 403.735 52.7026 404.13 52.202L405.862 50.0038C406.256 49.5032 407.011 49.4066 407.537 49.7892C408.064 50.1715 408.172 50.894 407.777 51.3946Z" fill="#E1A277"/>
<path d="M406.049 50.3852L404.843 51.9151C404.474 52.3844 403.767 52.4746 403.273 52.1167C402.779 51.757 402.678 51.0803 403.048 50.6106L404.254 49.0802C404.624 48.6112 405.33 48.5205 405.824 48.8791C406.318 49.2381 406.419 49.9162 406.049 50.3852Z" fill="#E1A277"/>
<path d="M412.363 47.6096C412.363 47.6096 413.803 51.9546 415.024 53.1564C416.243 54.3586 412.403 55.7669 411.325 51.7072C410.247 47.6475 412.363 47.6096 412.363 47.6096Z" fill="#E1A277"/>
<path d="M410.527 53.9927L409.247 55.7499C408.854 56.2882 408.069 56.4172 407.503 56.0361C406.936 55.655 406.794 54.9022 407.187 54.3632L408.467 52.606C408.859 52.0677 409.644 51.9387 410.211 52.3205C410.778 52.7009 410.92 53.454 410.527 53.9927Z" fill="#E1A277"/>
<path d="M408.863 53.4595L407.515 55.17C407.101 55.6948 406.312 55.7958 405.76 55.3947C405.209 54.994 405.095 54.2369 405.508 53.7121L406.856 52.0023C407.269 51.4775 408.058 51.3772 408.61 51.7783C409.162 52.1783 409.276 52.9354 408.863 53.4595Z" fill="#E1A277"/>
<g filter="url(#filter0_d_798_12939)">
<path d="M811.334 181.041L759.91 166.491L729.126 153.848L697.496 152.872L668.751 139.53H653.838L646.838 138.258L626.339 139.53H606.339L599.542 120.362L575.34 119.508V115.57L568.84 116.569H559.341H554.841L548.341 115.57L536.841 116.569L528.841 115.57L526.841 118.565L521.342 107.584L501.842 101.594L473.843 112.576H429.344L335.27 92.6096L290.099 182.579L282.947 239.294L266.172 287.07L285.994 318.691L262.986 392.709L242.145 427.65L229.822 491.83L238.868 536.336L216.334 594.61H811.334L874.937 583.04L924.256 525.502L874.937 274.802L833.839 194.66L811.334 181.041Z" fill="#060606"/>
</g>
<path d="M543.053 43.0002C542.396 45.083 541.794 47.1807 541.247 49.2947C541.121 49.7808 540.367 49.5753 540.494 49.0876C541.04 46.972 541.642 44.8751 542.3 42.7923C542.451 42.3148 543.205 42.5188 543.053 43.0002Z" fill="#FCFCFC"/>
<path d="M531.779 44.0953C530.358 44.3024 528.939 44.3923 527.504 44.3477C527.002 44.3329 527 43.5513 527.504 43.5662C528.867 43.6084 530.221 43.5388 531.571 43.3411C532.062 43.2692 532.275 44.0226 531.779 44.0953Z" fill="#FCFCFC"/>
<path d="M465.033 101.298L462.048 107.962C462.048 107.962 469.611 109.924 469.954 111.591C470.297 113.259 457.446 112.125 457.446 112.125L459.632 99.4677L465.033 101.298Z" fill="#FCFCFC"/>
<path d="M433.039 101.298L436.024 107.962C436.024 107.962 428.46 109.924 428.117 111.591C427.775 113.259 440.626 112.125 440.626 112.125L438.44 99.4677L433.039 101.298Z" fill="#FCFCFC"/>
<path d="M463.704 60.3245C463.704 60.3245 468.921 73.4551 470.921 82.1075C472.921 90.7599 470.133 102.198 462.344 101.167C454.555 100.138 457.403 91.9954 457.446 87.4384C457.489 82.8812 453.187 73.4356 452.797 73.8263C452.406 74.2171 441.985 73.5661 441.985 73.5661C441.985 73.5661 437.64 83.3423 438.767 88.5456C439.893 93.7493 442.373 98.5511 435.536 101.232C428.699 103.915 425.916 93.3646 425.549 86.3309C425.182 79.2971 430.334 59.1096 430.334 59.1096L463.704 60.3245Z" fill="#060606"/>
<path d="M447.983 60.2142C442.612 59.4992 435.79 59.1488 430.334 59.1096C430.795 59.1167 429.88 59.1057 430.334 59.1096C431.334 56.1096 434.002 43.8036 437.787 37.6366C438.177 37.0173 438.566 36.4607 438.966 35.9747C439.117 35.7951 438.816 37.802 438.966 37.6366C444.097 32.3294 466.609 37.6366 466.609 37.6366C466.641 37.8169 471.821 38.1584 471.982 42.477C472.11 45.644 460.154 55.5155 460.259 56.2516C452.079 57.4627 455.968 61.278 447.983 60.2142Z" fill="#060606"/>
<path d="M463.704 60.3245C453.298 62.8598 440.667 62.8985 430.334 59.1096L430.764 57.6594L431.185 56.1096L431.999 53.1096C441.637 56.0927 453.281 55.7197 463.301 53.6189L463.704 60.3245Z" fill="#FCFCFC"/>
<path d="M433.221 63.0404C431.48 66.7754 430.222 70.6682 429.431 74.7103C429.334 75.2035 428.581 74.9948 428.677 74.5025C429.482 70.3923 430.778 66.4417 432.546 62.6465C432.759 62.1909 433.433 62.5871 433.221 63.0404Z" fill="#FCFCFC"/>
<path d="M428.592 77.3965C428.208 78.1593 427.994 78.9689 427.948 79.8208C427.922 80.321 427.139 80.3241 427.167 79.8208C427.221 78.8283 427.471 77.8896 427.918 77.0018C428.144 76.5524 428.818 76.9479 428.592 77.3965Z" fill="#FCFCFC"/>
<path d="M468.282 96.1391C467.593 97.6109 466.298 98.6815 464.732 99.1075C464.247 99.2396 464.039 98.4862 464.525 98.3534C465.91 97.9767 467 97.0419 467.607 95.7447C467.82 95.2898 468.495 95.6861 468.282 96.1391Z" fill="#FCFCFC"/>
<path d="M437.51 48.1388C437.371 48.7273 437.144 49.283 436.832 49.8012C436.573 50.2318 435.897 49.8394 436.158 49.4065C436.437 48.9422 436.633 48.4577 436.756 47.9309C436.872 47.4409 437.625 47.6488 437.51 48.1388Z" fill="#FCFCFC"/>
<path d="M433.463 51.4279L431.72 50.167C431.187 49.7803 430.433 49.9009 430.046 50.4358C429.659 50.9699 429.78 51.724 430.314 52.1108L432.056 53.3718C432.591 53.7587 433.345 53.6379 433.732 53.1031C434.118 52.569 433.998 51.8149 433.463 51.4279Z" fill="#E1A277"/>
<path d="M468.586 45.3199C467.149 43.5083 465.576 41.824 463.866 40.268C463.493 39.9288 464.047 39.3771 464.419 39.7155C466.129 41.2715 467.702 42.9549 469.138 44.7673C469.448 45.1573 468.898 45.7138 468.586 45.3199Z" fill="#FCFCFC"/>
<path d="M436.543 59.4369C436.543 59.4369 433.348 60.3946 429.409 57.9963C425.47 55.5987 432.868 50.9975 432.81 50.9561C432.753 50.9148 436.422 53.0057 436.399 53.2441C436.377 53.4818 437.279 56.7444 437.279 56.7444L436.543 59.4369Z" fill="#E1A277"/>
<path d="M436.541 59.4466L437.251 56.8617C437.251 56.8617 445.458 57.9824 450.566 54.1551C455.673 50.327 461.542 39.8018 461.542 39.8018L468.368 47.2588C468.368 47.2588 457.919 58.5336 451.507 60.4371C445.094 62.3409 436.541 59.4466 436.541 59.4466Z" fill="#060606"/>
<path d="M431.834 54.7258L429.566 53.5492C429.043 53.1987 428.298 52.9798 427.948 53.5036C427.598 54.0264 427.936 54.7979 428.459 55.1475L430.561 56.6291C431.084 56.9798 431.799 56.838 432.148 56.3143C432.499 55.7907 432.357 55.0762 431.834 54.7258Z" fill="#E1A277"/>
<path d="M432.132 52.4446L430.344 51.2482C429.795 50.8817 429.047 51.0297 428.68 51.5788C428.313 52.1263 428.455 52.7764 429.004 53.1429L430.797 54.4383C431.346 54.8048 432.095 54.6569 432.461 54.1086C432.829 53.5604 432.68 52.8111 432.132 52.4446Z" fill="#E1A277"/>
<path d="M437.359 56.8452C437.359 56.8452 437.107 52.3383 437.814 50.829C438.52 49.3187 434.573 49.1768 434.944 53.3372C435.314 57.4974 437.359 56.8452 437.359 56.8452Z" fill="#E1A277"/>
<path d="M430.603 56.2123L428.84 55.3453C428.349 55.017 427.843 54.9464 427.514 55.4372C427.186 55.928 427.318 56.5977 427.81 56.9263L429.409 57.9963C429.9 58.3252 430.57 58.1923 430.899 57.7015C431.227 57.2109 431.094 56.5405 430.603 56.2123Z" fill="#E1A277"/>
<path d="M568.033 105.298L565.048 111.962C565.048 111.962 572.612 113.924 572.955 115.591C573.297 117.259 560.446 116.125 560.446 116.125L562.632 103.468L568.033 105.298Z" fill="#FCFCFC"/>
<path d="M536.039 105.298L539.025 111.962C539.025 111.962 531.461 113.924 531.118 115.591C530.775 117.259 543.626 116.125 543.626 116.125L541.44 103.468L536.039 105.298Z" fill="#FCFCFC"/>
<path d="M566.704 64.3245C566.704 64.3245 571.922 77.4551 573.921 86.1075C575.921 94.7599 573.134 106.198 565.344 105.167C557.555 104.138 560.403 95.9954 560.446 91.4384C560.489 86.8812 556.188 77.4356 555.797 77.8263C555.406 78.2171 544.985 77.5661 544.985 77.5661C544.985 77.5661 540.641 87.3423 541.767 92.5456C542.893 97.7493 545.373 102.551 538.537 105.232C531.699 107.915 528.917 97.3646 528.549 90.3309C528.182 83.2971 535.595 62.4441 535.595 62.4441L566.704 64.3245Z" fill="#060606"/>
<path d="M550.983 64.2142C545.613 63.4992 540.198 63.2272 534.742 63.188C534.288 63.1841 533.827 63.1771 533.366 63.17C534.05 60.1566 537.003 47.8036 540.788 41.6366C541.178 41.0173 541.566 40.4607 541.966 39.9747C542.117 39.7951 541.816 41.802 541.966 41.6366C547.097 36.3294 569.609 41.6366 569.609 41.6366C569.641 41.8169 574.822 42.1584 574.983 46.477C575.11 49.644 563.155 59.5155 563.26 60.2516C555.079 61.4627 558.968 65.278 550.983 64.2142Z" fill="#060606"/>
<path d="M566.704 64.3245C556.299 66.8598 545.928 66.233 535.595 62.4441L536.804 56.4435C546.441 59.4266 556.282 59.7197 566.301 57.6189L566.704 64.3245Z" fill="#FCFCFC"/>
<path d="M536.221 67.0404C534.481 70.7754 533.223 74.6682 532.432 78.7103C532.335 79.2035 531.581 78.9948 531.677 78.5025C532.482 74.3923 533.778 70.4417 535.547 66.6465C535.759 66.1909 536.433 66.5871 536.221 67.0404Z" fill="#FCFCFC"/>
<path d="M531.593 81.3965C531.209 82.1593 530.995 82.9689 530.949 83.8208C530.922 84.321 530.14 84.3241 530.167 83.8208C530.221 82.8283 530.471 81.8896 530.918 81.0018C531.144 80.5524 531.818 80.9479 531.593 81.3965Z" fill="#FCFCFC"/>
<path d="M571.283 100.139C570.593 101.611 569.298 102.682 567.733 103.107C567.247 103.24 567.04 102.486 567.525 102.353C568.911 101.977 570 101.042 570.607 99.7447C570.821 99.2898 571.495 99.6861 571.283 100.139Z" fill="#FCFCFC"/>
<path d="M540.511 52.1388C540.372 52.7273 540.144 53.283 539.832 53.8012C539.574 54.2318 538.898 53.8394 539.158 53.4065C539.437 52.9422 539.633 52.4577 539.756 51.9309C539.872 51.4409 540.626 51.6488 540.511 52.1388Z" fill="#FCFCFC"/>
<path d="M512.334 53.8845L514.196 55.6096C514.196 55.6096 519.518 48.1383 526.025 47.3776C532.532 46.6178 544.334 51.0092 544.334 51.0092L543.349 40.9026C543.349 40.9026 528.412 37.7844 522.29 41.2327C516.169 44.6828 512.334 53.8845 512.334 53.8845Z" fill="#060606"/>
<path d="M662.684 128.298L659.699 134.962C659.699 134.962 667.263 136.924 667.606 138.591C667.948 140.259 655.097 139.125 655.097 139.125L657.283 126.468L662.684 128.298Z" fill="#FCFCFC"/>
<path d="M630.69 128.298L633.676 134.962C633.676 134.962 626.112 136.924 625.769 138.591C625.427 140.259 638.277 139.125 638.277 139.125L636.091 126.468L630.69 128.298Z" fill="#FCFCFC"/>
<path d="M661.355 87.3245C661.355 87.3245 666.572 100.455 668.572 109.107C670.572 117.76 667.785 129.198 659.995 128.167C652.206 127.138 655.054 118.995 655.097 114.438C655.14 109.881 650.839 100.436 650.448 100.826C650.057 101.217 639.636 100.566 639.636 100.566C639.636 100.566 635.291 110.342 636.418 115.546C637.544 120.749 640.024 125.551 633.188 128.232C626.35 130.915 623.568 120.365 623.2 113.331C622.833 106.297 628.014 87.17 628.014 87.17L644.833 87.6096L661.355 87.3245Z" fill="#060606"/>
<path d="M645.635 88.2141C640.264 87.4992 634.849 87.2272 629.393 87.188C628.939 87.1841 628.478 87.177 628.017 87.17C628.701 84.1566 630.549 71.2767 634.334 65.1096C634.724 64.4903 635.434 63.5956 635.834 63.1096C635.985 62.9301 637.184 63.775 637.334 63.6096C642.465 58.3025 664.26 65.6365 664.26 65.6365C664.293 65.8168 669.473 66.1584 669.634 70.477C669.761 73.644 657.806 83.5154 657.911 84.2515C649.73 85.4627 653.619 89.2779 645.635 88.2141Z" fill="#060606"/>
<path d="M661.336 87.1508C650.298 89.5768 639.298 88.977 628.336 85.3515L629.618 79.6096C639.841 82.4641 650.28 82.7446 660.908 80.7344L661.336 87.1508Z" fill="#FCFCFC"/>
<path d="M630.871 90.0404C629.131 93.7754 627.873 97.6682 627.082 101.71C626.985 102.203 626.231 101.995 626.328 101.502C627.133 97.3923 628.428 93.4416 630.197 89.6465C630.41 89.1909 631.083 89.5871 630.871 90.0404Z" fill="#FCFCFC"/>
<path d="M626.244 104.396C625.86 105.159 625.646 105.969 625.6 106.821C625.573 107.321 624.791 107.324 624.818 106.821C624.872 105.828 625.122 104.89 625.569 104.002C625.795 103.552 626.469 103.948 626.244 104.396Z" fill="#FCFCFC"/>
<path d="M665.934 123.139C665.244 124.611 663.949 125.682 662.384 126.107C661.899 126.24 661.691 125.486 662.176 125.353C663.562 124.977 664.651 124.042 665.258 122.745C665.472 122.29 666.146 122.686 665.934 123.139Z" fill="#FCFCFC"/>
<path d="M637.705 66.0003C637.047 68.0831 636.446 70.1807 635.899 72.2948C635.773 72.7809 635.019 72.5753 635.145 72.0877C635.692 69.972 636.293 67.8752 636.951 65.7924C637.102 65.3149 637.856 65.5188 637.705 66.0003Z" fill="#FCFCFC"/>
<path d="M635.162 75.1388C635.023 75.7273 634.795 76.283 634.484 76.8011C634.225 77.2317 633.549 76.8394 633.809 76.4064C634.088 75.9422 634.284 75.4577 634.408 74.9309C634.523 74.4409 635.277 74.6488 635.162 75.1388Z" fill="#FCFCFC"/>
<path d="M434.457 51.1923L432.714 49.9314C432.181 49.5447 431.427 49.6654 431.04 50.2002C430.653 50.7343 430.774 51.4884 431.308 51.8752L433.051 53.1362C433.585 53.5231 434.339 53.4024 434.726 52.8675C435.113 52.3334 434.992 51.5793 434.457 51.1923Z" fill="#E1A277"/>
<path d="M469.58 45.0843C468.143 43.2727 466.57 41.5884 464.86 40.0324C464.487 39.6932 465.042 39.1415 465.413 39.4799C467.123 41.0359 468.696 42.7193 470.132 44.5317C470.442 44.9217 469.893 45.4782 469.58 45.0843Z" fill="#FCFCFC"/>
<path d="M437.537 59.2013C437.537 59.2013 434.342 60.159 430.403 57.7607C426.464 55.3631 433.862 50.7619 433.804 50.7205C433.747 50.6792 437.416 52.7701 437.393 53.0085C437.371 53.2462 438.273 56.5088 438.273 56.5088L437.537 59.2013Z" fill="#E1A277"/>
<path d="M437.536 59.211L438.245 56.6261C438.245 56.6261 446.452 57.7468 451.56 53.9195C456.667 50.0914 462.536 39.5662 462.536 39.5662L469.362 47.0232C469.362 47.0232 458.913 58.298 452.501 60.2015C446.089 62.1054 437.536 59.211 437.536 59.211Z" fill="#060606"/>
<path d="M432.828 54.4902L430.56 53.3136C430.037 52.9631 429.292 52.7442 428.942 53.268C428.592 53.7908 428.93 54.5623 429.453 54.9119L431.556 56.3935C432.078 56.7442 432.793 56.6024 433.143 56.0787C433.493 55.5551 433.351 54.8406 432.828 54.4902Z" fill="#E1A277"/>
<path d="M433.126 52.209L431.338 51.0126C430.789 50.6461 430.041 50.7941 429.674 51.3433C429.307 51.8907 429.45 52.5408 429.998 52.9073L431.791 54.2027C432.34 54.5692 433.089 54.4213 433.455 53.873C433.823 53.3248 433.674 52.5755 433.126 52.209Z" fill="#E1A277"/>
<path d="M438.354 56.6096C438.354 56.6096 438.101 52.1027 438.808 50.5934C439.514 49.0832 435.567 48.9412 435.938 53.1016C436.308 57.2619 438.354 56.6096 438.354 56.6096Z" fill="#E1A277"/>
<path d="M431.598 55.9768L429.834 55.1097C429.343 54.7814 428.837 54.7108 428.509 55.2016C428.18 55.6924 428.312 56.3621 428.804 56.6907L430.403 57.7607C430.894 58.0897 431.564 57.9567 431.893 57.4659C432.221 56.9753 432.088 56.3049 431.598 55.9768Z" fill="#E1A277"/>
<path d="M517.334 52.1095C517.334 52.1095 519.585 54.9902 521.167 55.6471C522.749 56.3046 519.716 59.0494 517.195 55.6894C514.675 52.3293 517.334 52.1095 517.334 52.1095Z" fill="#E1A277"/>
<path d="M515.569 58.2367L514.961 60.3276C514.774 60.9691 514.08 61.3585 513.418 61.1935C512.756 61.0286 512.367 60.3694 512.554 59.7279L513.162 57.6377C513.349 56.9962 514.043 56.6076 514.705 56.7726C515.366 56.9367 515.756 57.5959 515.569 58.2367Z" fill="#E1A277"/>
<path d="M517.312 58.1075L516.783 60.2163C516.622 60.8624 515.942 61.2762 515.274 61.1352C514.605 60.9943 514.192 60.3495 514.354 59.7026L514.882 57.5938C515.044 56.9477 515.724 56.5339 516.392 56.6756C517.06 56.8158 517.474 57.4607 517.312 58.1075Z" fill="#E1A277"/>
<path d="M513.789 56.729L513.007 59.4165C512.829 60.0286 512.166 60.4009 511.534 60.2431C510.903 60.0854 510.532 59.4563 510.71 58.8443L511.492 56.1575C511.67 55.5454 512.333 55.1731 512.964 55.3308C513.596 55.4878 513.968 56.1169 513.789 56.729Z" fill="#E1A277"/>
<path d="M511.809 56.4407L511.264 58.311C511.098 58.8844 510.476 59.2331 509.884 59.0863C509.291 58.9378 508.943 58.3486 509.11 57.7744L509.655 55.9033C509.822 55.3299 510.443 54.9812 511.035 55.1288C511.628 55.2765 511.976 55.8673 511.809 56.4407Z" fill="#E1A277"/>
<path d="M513.834 50.6095C513.834 50.6095 511.157 51.4756 509.655 55.9033C508.153 60.3325 517.132 58.8271 517.114 58.8969C517.097 58.9659 518.591 54.9476 518.413 54.7849C518.234 54.6214 517.334 52.1095 517.334 52.1095L513.834 50.6095Z" fill="#E1A277"/>
<path d="M536.457 56.1923L534.714 54.9314C534.181 54.5447 533.427 54.6654 533.04 55.2002C532.653 55.7343 532.774 56.4884 533.308 56.8752L535.051 58.1362C535.585 58.5231 536.339 58.4024 536.726 57.8675C537.113 57.3334 536.992 56.5793 536.457 56.1923Z" fill="#E1A277"/>
<path d="M571.58 50.0843C570.143 48.2727 568.57 46.5884 566.86 45.0324C566.487 44.6932 567.042 44.1415 567.413 44.4799C569.123 46.0359 570.696 47.7193 572.132 49.5317C572.442 49.9217 571.893 50.4782 571.58 50.0843Z" fill="#FCFCFC"/>
<path d="M539.537 64.2013C539.537 64.2013 536.342 65.159 532.403 62.7607C528.464 60.3631 535.862 55.7619 535.804 55.7205C535.747 55.6792 539.416 57.7701 539.393 58.0085C539.371 58.2462 540.273 61.5088 540.273 61.5088L539.537 64.2013Z" fill="#E1A277"/>
<path d="M539.536 64.211L540.245 61.6261C540.245 61.6261 548.452 62.7468 553.56 58.9195C558.667 55.0914 564.536 44.5662 564.536 44.5662L571.362 52.0232C571.362 52.0232 560.913 63.298 554.501 65.2015C548.089 67.1054 539.536 64.211 539.536 64.211Z" fill="#060606"/>
<path d="M534.828 59.4902L532.56 58.3136C532.037 57.9631 531.292 57.7442 530.942 58.268C530.592 58.7908 530.93 59.5623 531.453 59.9119L533.556 61.3935C534.078 61.7442 534.793 61.6024 535.143 61.0787C535.493 60.5551 535.351 59.8406 534.828 59.4902Z" fill="#E1A277"/>
<path d="M535.126 57.209L533.338 56.0126C532.789 55.6461 532.041 55.7941 531.674 56.3433C531.307 56.8907 531.45 57.5408 531.998 57.9073L533.791 59.2027C534.34 59.5692 535.089 59.4213 535.455 58.873C535.823 58.3248 535.674 57.5755 535.126 57.209Z" fill="#E1A277"/>
<path d="M540.354 61.6096C540.354 61.6096 540.101 57.1027 540.808 55.5934C541.514 54.0832 537.567 53.9412 537.938 58.1016C538.308 62.2619 540.354 61.6096 540.354 61.6096Z" fill="#E1A277"/>
<path d="M533.598 60.9768L531.834 60.1097C531.343 59.7814 530.837 59.7108 530.509 60.2016C530.18 60.6924 530.312 61.3621 530.804 61.6907L532.403 62.7607C532.894 63.0897 533.564 62.9567 533.893 62.4659C534.221 61.9753 534.088 61.3049 533.598 60.9768Z" fill="#E1A277"/>
<path d="M609.834 58.1097L612.293 56.3706C612.293 56.3706 614.527 60.8975 620.074 63.1781C625.622 65.4577 636.267 63.4671 636.267 63.4671L642.775 64.9357L631.834 72.1097C631.834 72.1097 619.643 73.3568 615.147 68.4704C610.653 63.5824 609.834 58.1097 609.834 58.1097Z" fill="#060606"/>
<path d="M626.428 67.0953C625.007 67.3024 624.427 67.1399 622.991 67.0953C622.49 67.0805 622.487 66.3263 622.991 66.3411C624.354 66.3833 624.87 66.5389 626.22 66.3411C626.712 66.2692 626.924 67.0226 626.428 67.0953Z" fill="#FCFCFC"/>
<path d="M612.162 57.3729C612.162 57.3729 615.164 54.1428 616.733 53.5793C618.301 53.015 615.619 50.1171 612.931 53.3136C610.242 56.5101 612.162 57.3729 612.162 57.3729Z" fill="#E1A277"/>
<path d="M611.58 50.6908L611.168 48.5791C611.041 47.9312 610.408 47.5053 609.76 47.6319C609.113 47.7585 608.686 48.3916 608.813 49.0395L609.225 51.1504C609.352 51.7983 609.985 52.2234 610.633 52.0968C611.28 51.971 611.707 51.338 611.58 50.6908Z" fill="#E1A277"/>
<path d="M613.239 50.9174L612.905 48.7924C612.802 48.1414 612.185 47.692 611.533 47.7944C610.881 47.8968 610.433 48.5142 610.535 49.166L610.87 51.291C610.972 51.942 611.589 52.3914 612.241 52.2882C612.893 52.1866 613.342 51.5692 613.239 50.9174Z" fill="#E1A277"/>
<path d="M609.752 52.0881L609.222 49.3738C609.101 48.7557 608.496 48.3485 607.878 48.4696C607.261 48.5907 606.853 49.1949 606.974 49.8131L607.504 52.5266C607.625 53.1448 608.23 53.5519 608.848 53.4308C609.466 53.3105 609.873 52.7063 609.752 52.0881Z" fill="#E1A277"/>
<path d="M607.831 52.2633L607.461 50.3743C607.348 49.7952 606.781 49.4138 606.202 49.5264C605.622 49.6405 605.241 50.2063 605.354 50.7862L605.724 52.676C605.837 53.2551 606.404 53.6365 606.983 53.5231C607.563 53.4098 607.944 52.8424 607.831 52.2633Z" fill="#E1A277"/>
<path d="M609.733 58.7491C609.733 58.7491 606.801 57.1596 605.724 52.676C604.645 48.1907 613.125 50.1921 613.114 50.1218C613.103 50.0522 614.208 54.1287 614.023 54.2803C613.839 54.4327 612.162 57.3729 612.162 57.3729L609.733 58.7491Z" fill="#E1A277"/>
<path d="M635.868 88.0745L633.817 87.4255C633.189 87.2261 632.511 87.5778 632.312 88.2072C632.113 88.8358 632.465 89.5137 633.093 89.713L635.144 90.362C635.773 90.5612 636.451 90.2097 636.65 89.5803C636.849 88.9517 636.497 88.2737 635.868 88.0745Z" fill="#E1A277"/>
<path d="M667.289 71.2328C665.356 69.9648 663.333 68.8606 661.22 67.9212C660.76 67.7164 661.112 67.0184 661.571 67.2229C663.684 68.1624 665.706 69.2658 667.64 70.5346C668.056 70.8075 667.71 71.5085 667.289 71.2328Z" fill="#FCFCFC"/>
<path d="M641.31 94.709C641.31 94.709 638.579 96.6225 634.085 95.5845C629.591 94.5471 635.168 87.8531 635.1 87.8319C635.033 87.8106 639.173 88.6418 639.226 88.8753C639.28 89.1079 641.162 91.9214 641.162 91.9214L641.31 94.709Z" fill="#E1A277"/>
<path d="M641.312 94.7186L641.173 92.0416C641.173 92.0416 649.316 90.5251 652.961 85.2859C656.606 80.046 658.868 68.2094 658.868 68.2094L667.692 73.1419C667.692 73.1419 661.318 87.1302 655.829 90.9534C650.341 94.7769 641.312 94.7186 641.312 94.7186Z" fill="#060606"/>
<path d="M635.359 91.7173L632.836 91.3135C632.229 91.1453 631.453 91.1717 631.286 91.7789C631.117 92.3853 631.681 93.0113 632.288 93.1787L634.749 93.9243C635.356 94.0928 635.989 93.7336 636.157 93.1264C636.325 92.5192 635.965 91.8855 635.359 91.7173Z" fill="#E1A277"/>
<path d="M634.924 89.4583L632.85 88.8847C632.215 88.7092 631.551 89.085 631.375 89.7216C631.199 90.3567 631.538 90.9291 632.174 91.1046L634.284 91.7704C634.92 91.9459 635.584 91.57 635.76 90.9342C635.936 90.2983 635.56 89.6338 634.924 89.4583Z" fill="#E1A277"/>
<path d="M641.27 91.9919C641.27 91.9919 639.613 87.7931 639.81 86.138C640.005 84.4823 636.214 85.5887 637.874 89.4214C639.533 93.2543 641.27 91.9919 641.27 91.9919Z" fill="#E1A277"/>
<path d="M634.658 93.5154L632.711 93.2468C632.142 93.0895 631.639 93.1817 631.482 93.7508C631.324 94.32 631.661 94.9141 632.23 95.0716L634.085 95.5845C634.655 95.7423 635.249 95.4054 635.406 94.8362C635.564 94.2673 635.227 93.6727 634.658 93.5154Z" fill="#E1A277"/>
<path d="M438.07 36.3032C447.808 39.2191 456.397 36.0305 456.584 35.9124C456.584 35.7726 441.086 34.7878 438.921 34.6464C438.632 35.1309 438.351 35.6858 438.07 36.3032Z" fill="#FCFCFC"/>
<path d="M425.549 18.7405C425.549 28.7528 436.886 36.8698 450.871 36.8698C464.855 36.8698 476.192 28.7528 476.192 18.7405C476.192 8.72666 464.855 0.609619 450.871 0.609619C436.886 0.609619 425.549 8.72666 425.549 18.7405Z" fill="#060606"/>
<path d="M449.879 26.1041C464.994 26.1041 476.193 21.0874 476.193 21.0874L476.185 21.0796C475.825 20.8287 464.142 12.7242 450.293 12.7242C436.467 12.7242 426.408 19.5243 425.643 20.0011L425.627 20.0089H425.62L425.611 20.0159C425.159 20.2746 434.764 26.1041 449.879 26.1041Z" fill="#E1A277"/>
<path d="M425.643 20.0011C426.331 19.6728 437.529 14.4365 450.527 14.4365C463.727 14.4365 475.81 20.8842 476.185 21.0796C475.825 20.8287 464.142 12.7242 450.293 12.7242C436.467 12.7242 426.408 19.5243 425.643 20.0011Z" fill="#B65D4B"/>
<path d="M469.201 20.8045L469.166 20.7826C468.792 20.5466 465.474 18.592 461.985 18.599C461.811 18.599 461.636 18.6037 461.461 18.6139C459.513 18.7241 457.941 19.4798 456.853 20.2121C456.31 20.5779 455.888 20.9374 455.605 21.2031C455.464 21.336 455.358 21.4454 455.287 21.5204L455.208 21.6056L455.187 21.6314C455.047 21.7955 454.8 21.8166 454.636 21.6767C454.471 21.5376 454.45 21.2906 454.589 21.1265C454.606 21.107 455.247 20.352 456.417 19.5642C457.585 18.7772 459.289 17.955 461.417 17.8331C461.607 17.8222 461.797 17.8175 461.985 17.8175C466.006 17.8261 469.59 20.1324 469.622 20.1457C469.804 20.2613 469.857 20.5028 469.741 20.6849C469.625 20.867 469.383 20.9202 469.201 20.8045Z" fill="#060606"/>
<path d="M430.127 20.1457C430.158 20.1324 433.742 17.8261 437.763 17.8175C437.952 17.8175 438.142 17.8222 438.332 17.8331C440.46 17.955 442.164 18.7772 443.332 19.5642C444.502 20.352 445.143 21.107 445.159 21.1265C445.298 21.2906 445.278 21.5376 445.113 21.6767C444.949 21.8166 444.702 21.7955 444.563 21.6314L444.54 21.6056C444.286 21.3149 441.935 18.8139 438.287 18.6139C438.112 18.6037 437.938 18.599 437.763 18.599C435.904 18.5975 434.09 19.1477 432.748 19.7025C432.076 19.98 431.523 20.2574 431.138 20.4645C430.947 20.5685 430.797 20.6545 430.697 20.7139L430.583 20.7826L430.548 20.8045C430.365 20.9202 430.124 20.867 430.007 20.6849C429.892 20.5028 429.945 20.2613 430.127 20.1457Z" fill="#060606"/>
<path d="M471.229 11.6176C469.953 9.39487 467.644 7.82476 465.389 6.70873C464.939 6.48599 465.335 5.81152 465.784 6.03426C468.153 7.20657 470.564 8.89 471.904 11.2237C472.154 11.6605 471.479 12.0552 471.229 11.6176Z" fill="#FCFCFC"/>
<path d="M462.595 5.52781C462.151 5.20191 461.677 4.99011 461.138 4.87991C460.645 4.77909 460.853 4.0257 461.345 4.12573C461.943 4.24844 462.497 4.4915 462.99 4.85257C463.392 5.14721 463.002 5.82557 462.595 5.52781Z" fill="#FCFCFC"/>
<path d="M541.07 40.3032C550.808 43.2191 559.397 40.0305 559.584 39.9124C559.584 39.7726 544.086 38.7878 541.921 38.6464C541.632 39.1309 541.351 39.6858 541.07 40.3032Z" fill="#FCFCFC"/>
<path d="M528.549 22.7405C528.549 32.7528 539.886 40.8698 553.871 40.8698C567.855 40.8698 579.192 32.7528 579.192 22.7405C579.192 12.7267 567.855 4.60962 553.871 4.60962C539.886 4.60962 528.549 12.7267 528.549 22.7405Z" fill="#060606"/>
<path d="M552.879 30.1041C567.994 30.1041 579.193 25.0874 579.193 25.0874L579.185 25.0796C578.825 24.8287 567.142 16.7242 553.293 16.7242C539.467 16.7242 529.408 23.5243 528.643 24.0011L528.627 24.0089H528.62L528.611 24.0159C528.159 24.2746 537.764 30.1041 552.879 30.1041Z" fill="#E1A277"/>
<path d="M528.643 24.0011C529.331 23.6728 540.529 18.4365 553.527 18.4365C566.727 18.4365 578.81 24.8842 579.185 25.0796C578.825 24.8287 567.142 16.7242 553.293 16.7242C539.467 16.7242 529.408 23.5243 528.643 24.0011Z" fill="#B65D4B"/>
<path d="M572.201 24.8045L572.166 24.7826C571.792 24.5466 568.474 22.592 564.985 22.599C564.811 22.599 564.636 22.6037 564.461 22.6139C562.513 22.7241 560.941 23.4798 559.853 24.2121C559.31 24.5779 558.888 24.9374 558.605 25.2031C558.464 25.336 558.358 25.4454 558.287 25.5204L558.208 25.6056L558.187 25.6314C558.047 25.7955 557.8 25.8166 557.636 25.6767C557.471 25.5376 557.45 25.2906 557.589 25.1265C557.606 25.107 558.247 24.352 559.417 23.5642C560.585 22.7772 562.289 21.955 564.417 21.8331C564.607 21.8222 564.797 21.8175 564.985 21.8175C569.006 21.8261 572.59 24.1324 572.622 24.1457C572.804 24.2613 572.857 24.5028 572.741 24.6849C572.625 24.867 572.383 24.9202 572.201 24.8045Z" fill="#060606"/>
<path d="M533.127 24.1457C533.158 24.1324 536.742 21.8261 540.763 21.8175C540.952 21.8175 541.142 21.8222 541.332 21.8331C543.46 21.955 545.164 22.7772 546.332 23.5642C547.502 24.352 548.143 25.107 548.159 25.1265C548.298 25.2906 548.278 25.5376 548.113 25.6767C547.949 25.8166 547.702 25.7955 547.563 25.6314L547.54 25.6056C547.286 25.3149 544.935 22.8139 541.287 22.6139C541.112 22.6037 540.938 22.599 540.763 22.599C538.904 22.5975 537.09 23.1477 535.748 23.7025C535.076 23.98 534.523 24.2574 534.138 24.4645C533.947 24.5685 533.797 24.6545 533.697 24.7139L533.583 24.7826L533.548 24.8045C533.365 24.9202 533.124 24.867 533.007 24.6849C532.892 24.5028 532.945 24.2613 533.127 24.1457Z" fill="#060606"/>
<path d="M574.229 15.6176C572.953 13.3949 570.644 11.8248 568.389 10.7087C567.939 10.486 568.335 9.81152 568.784 10.0343C571.153 11.2066 573.564 12.89 574.904 15.2237C575.154 15.6605 574.479 16.0552 574.229 15.6176Z" fill="#FCFCFC"/>
<path d="M565.595 9.52781C565.151 9.20191 564.677 8.99011 564.138 8.87991C563.645 8.77909 563.853 8.0257 564.345 8.12573C564.943 8.24844 565.497 8.4915 565.99 8.85257C566.392 9.14721 566.002 9.82557 565.595 9.52781Z" fill="#FCFCFC"/>
<path d="M635.72 63.3032C645.458 66.2191 654.047 63.0305 654.235 62.9124C654.235 62.7726 638.737 61.7878 636.572 61.6464C636.283 62.1309 636.002 62.6858 635.72 63.3032Z" fill="#FCFCFC"/>
<path d="M623.199 45.7405C623.199 55.7528 634.536 63.8698 648.521 63.8698C662.505 63.8698 673.842 55.7528 673.842 45.7405C673.842 35.7267 662.505 27.6096 648.521 27.6096C634.536 27.6096 623.199 35.7267 623.199 45.7405Z" fill="#060606"/>
<path d="M647.529 53.1041C662.644 53.1041 673.843 48.0874 673.843 48.0874L673.835 48.0796C673.476 47.8287 661.792 39.7242 647.943 39.7242C634.118 39.7242 624.059 46.5243 623.293 47.0011L623.277 47.0089H623.27L623.261 47.0159C622.809 47.2746 632.414 53.1041 647.529 53.1041Z" fill="#E1A277"/>
<path d="M623.293 47.0011C623.981 46.6728 635.18 41.4365 648.178 41.4365C661.377 41.4365 673.46 47.8842 673.835 48.0796C673.476 47.8287 661.792 39.7242 647.943 39.7242C634.118 39.7242 624.059 46.5243 623.293 47.0011Z" fill="#B65D4B"/>
<path d="M666.852 47.8045L666.816 47.7826C666.442 47.5466 663.124 45.592 659.636 45.599C659.461 45.599 659.286 45.6037 659.112 45.6139C657.164 45.7241 655.591 46.4798 654.503 47.2121C653.96 47.5779 653.539 47.9374 653.256 48.2031C653.114 48.336 653.008 48.4454 652.937 48.5204L652.859 48.6056L652.837 48.6314C652.697 48.7955 652.451 48.8166 652.286 48.6767C652.121 48.5376 652.101 48.2906 652.24 48.1265C652.256 48.107 652.898 47.352 654.067 46.5642C655.236 45.7772 656.939 44.955 659.067 44.8331C659.257 44.8222 659.447 44.8175 659.636 44.8175C663.657 44.8261 667.241 47.1324 667.272 47.1457C667.454 47.2613 667.507 47.5028 667.392 47.6849C667.275 47.867 667.034 47.9202 666.852 47.8045Z" fill="#060606"/>
<path d="M627.777 47.1457C627.809 47.1324 631.393 44.8261 635.414 44.8175C635.602 44.8175 635.792 44.8222 635.982 44.8331C638.11 44.955 639.814 45.7772 640.982 46.5642C642.152 47.352 642.793 48.107 642.81 48.1265C642.949 48.2906 642.928 48.5376 642.763 48.6767C642.599 48.8166 642.352 48.7955 642.213 48.6314L642.191 48.6056C641.937 48.3149 639.586 45.8139 635.937 45.6139C635.762 45.6037 635.588 45.599 635.414 45.599C633.555 45.5975 631.741 46.1477 630.398 46.7025C629.727 46.98 629.173 47.2574 628.789 47.4645C628.597 47.5685 628.447 47.6545 628.347 47.7139L628.233 47.7826L628.198 47.8045C628.016 47.9202 627.774 47.867 627.658 47.6849C627.542 47.5028 627.595 47.2613 627.777 47.1457Z" fill="#060606"/>
<path d="M668.878 38.6176C667.602 36.3949 665.294 34.8248 663.039 33.7087C662.589 33.486 662.984 32.8115 663.434 33.0343C665.802 34.2066 668.213 35.89 669.553 38.2237C669.804 38.6605 669.129 39.0552 668.878 38.6176Z" fill="#FCFCFC"/>
<path d="M660.246 32.5278C659.802 32.2019 659.327 31.9901 658.788 31.8799C658.296 31.7791 658.504 31.0257 658.995 31.1257C659.594 31.2484 660.147 31.4915 660.64 31.8526C661.042 32.1472 660.652 32.8256 660.246 32.5278Z" fill="#FCFCFC"/>
<defs>
<filter id="filter0_d_798_12939" x="206.334" y="84.6096" width="727.922" height="522" filterUnits="userSpaceOnUse" color-interpolation-filters="sRGB">
<feFlood flood-opacity="0" result="BackgroundImageFix"/>
<feColorMatrix in="SourceAlpha" type="matrix" values="0 0 0 0 0 0 0 0 0 0 0 0 0 0 0 0 0 0 127 0" result="hardAlpha"/>
<feOffset dy="2"/>
<feGaussianBlur stdDeviation="5"/>
<feComposite in2="hardAlpha" operator="out"/>
<feColorMatrix type="matrix" values="0 0 0 0 0.756615 0 0 0 0 0.809616 0 0 0 0 0.9125 0 0 0 0.69 0"/>
<feBlend mode="normal" in2="BackgroundImageFix" result="effect1_dropShadow_798_12939"/>
<feBlend mode="normal" in="SourceGraphic" in2="effect1_dropShadow_798_12939" result="shape"/>
</filter>
</defs>
</svg>
