<svg width="36" height="36" viewBox="0 0 36 36" fill="none" xmlns="http://www.w3.org/2000/svg">
<path d="M12.5918 9.18033V8.34033H23.4094V9.18033H12.5918ZM12.5918 10.8603V10.0203H23.4094V10.8603H12.5918ZM12.5918 12.5403V11.7003H23.4094V12.5403H20.5247V27.6603H19.8035V12.5403H19.0824V27.6603H18.3612V12.5403H17.64V27.6603H16.9188V12.5403H16.1977V27.6603H15.4765V12.5403H12.5918Z" fill="#060606"/>
</svg>
