<svg width="264" height="248" viewBox="0 0 264 248" fill="none" xmlns="http://www.w3.org/2000/svg">
<g clip-path="url(#clip0_893_12895)" filter="url(#filter0_d_893_12895)">
<path d="M254.066 0L144.219 81.279L164.646 33.379L254.066 0Z" fill="#E17726"/>
<path d="M10.1915 0.0959473L99.3725 33.3849L118.768 81.9129L10.1915 0.0959473ZM209.86 172.858L258.411 173.782L241.443 231.424L182.2 215.113L209.86 172.858ZM54.1395 172.858L81.6965 215.113L22.5535 231.425L5.68848 173.782L54.1395 172.858Z" fill="#E27625"/>
<path d="M116.131 69.552L118.115 133.635L58.7441 130.934L75.6321 105.456L75.8461 105.211L116.131 69.552ZM147.254 68.837L188.154 105.213L188.366 105.457L205.254 130.935L145.896 133.635L147.254 68.837ZM83.4351 173.044L115.853 198.303L78.1951 216.484L83.4351 173.044ZM180.571 173.04L185.702 216.485L148.149 198.301L180.571 173.04Z" fill="#E27625"/>
<path d="M148.978 195.922L187.085 214.374L151.638 231.22L152.006 220.086L148.978 195.922ZM115.011 195.93L112.102 219.904L112.341 231.207L76.8105 214.374L115.011 195.93Z" fill="#D5BFB2"/>
<path d="M104.007 141.999L113.965 162.927L80.0615 152.995L104.007 141.999ZM159.992 142.001L184.05 152.995L150.036 162.924L159.992 142.001Z" fill="#233447"/>
<path d="M86.0259 172.83L80.5458 217.87L51.1729 173.815L86.0259 172.83ZM177.976 172.831L212.83 173.815L183.347 217.872L177.976 172.831ZM206.112 128.387L180.747 154.238L161.19 145.301L151.827 164.985L145.689 131.136L206.112 128.387ZM57.8749 128.387L118.31 131.136L112.171 164.985L102.806 145.304L83.3528 154.239L57.8749 128.387Z" fill="#CC6228"/>
<path d="M56.166 123.082L84.864 152.203L85.858 180.952L56.166 123.082ZM207.863 123.03L178.117 181.003L179.237 152.203L207.863 123.03ZM116.907 124.856L118.062 132.126L120.916 150.237L119.081 205.862L110.406 161.177L110.403 160.715L116.907 124.856ZM147.078 124.755L153.599 160.715L153.596 161.177L144.899 205.974L144.555 194.769L143.198 149.907L147.078 124.755Z" fill="#E27525"/>
<path d="M181.788 151.046L180.817 176.024L150.543 199.611L144.423 195.287L151.283 159.952L181.788 151.046ZM82.3174 151.046L112.716 159.952L119.576 195.287L113.456 199.611L83.1814 176.022L82.3174 151.046Z" fill="#F5841F"/>
<path d="M71.0176 208.858L109.75 227.21L109.586 219.373L112.827 216.528H151.161L154.519 219.363L154.271 227.194L192.758 208.904L174.03 224.38L151.385 239.933H112.516L89.8856 224.316L71.0176 208.858Z" fill="#C0AC9D"/>
<path d="M146.204 193.479L151.68 197.348L154.889 222.952L150.245 219.031H113.769L109.213 223.031L112.317 197.35L117.795 193.479H146.204Z" fill="#161616"/>
<path d="M246.814 2.25L260 41.807L251.765 81.804L257.629 86.327L249.694 92.381L255.658 96.987L247.761 104.178L252.609 107.689L239.743 122.715L186.973 107.35L186.516 107.105L148.489 75.027L246.814 2.25ZM17.186 2.25L115.512 75.027L77.484 107.105L77.027 107.35L24.257 122.715L11.391 107.689L16.235 104.181L8.343 96.987L14.295 92.386L6.241 86.315L12.326 81.789L4 41.809L17.186 2.25Z" fill="#763E1A"/>
<path d="M184.392 103.99L240.305 120.269L258.47 176.255H210.546L177.526 176.671L201.54 129.863L184.392 103.99ZM79.6079 103.99L62.4569 129.863L86.4739 176.671L53.4689 176.255H5.63086L23.6939 120.27L79.6079 103.99ZM167.384 33.1121L151.745 75.3511L148.426 132.411L147.156 150.296L147.055 195.984H116.944L116.846 150.382L115.572 132.396L112.252 75.3511L96.6149 33.1121H167.384Z" fill="#F5841F"/>
</g>
<defs>
<filter id="filter0_d_893_12895" x="0" y="0" width="264" height="248" filterUnits="userSpaceOnUse" color-interpolation-filters="sRGB">
<feFlood flood-opacity="0" result="BackgroundImageFix"/>
<feColorMatrix in="SourceAlpha" type="matrix" values="0 0 0 0 0 0 0 0 0 0 0 0 0 0 0 0 0 0 127 0" result="hardAlpha"/>
<feOffset dy="4"/>
<feGaussianBlur stdDeviation="2"/>
<feComposite in2="hardAlpha" operator="out"/>
<feColorMatrix type="matrix" values="0 0 0 0 0 0 0 0 0 0 0 0 0 0 0 0 0 0 0.25 0"/>
<feBlend mode="normal" in2="BackgroundImageFix" result="effect1_dropShadow_893_12895"/>
<feBlend mode="normal" in="SourceGraphic" in2="effect1_dropShadow_893_12895" result="shape"/>
</filter>
<clipPath id="clip0_893_12895">
<rect width="256" height="240" fill="white" transform="translate(4)"/>
</clipPath>
</defs>
</svg>
