<svg width="40" height="40" viewBox="0 0 40 40" fill="none" xmlns="http://www.w3.org/2000/svg">
<path d="M16.6667 16.7H25V35H16.6667V16.7ZM28.3333 35H33.3333C35.1667 35 36.6667 33.5 36.6667 31.6667V16.6667H28.3333V35ZM33.3333 5H8.33333C6.5 5 5 6.5 5 8.33333V13.3333H36.6667V8.33333C36.6667 6.5 35.1667 5 33.3333 5ZM5 31.6667C5 33.5 6.5 35 8.33333 35H13.3333V16.6667H5V31.6667Z" fill="#060606"/>
</svg>
