<svg width="907" height="605" viewBox="0 0 907 605" fill="none" xmlns="http://www.w3.org/2000/svg">
<path d="M496.06 47.6802C496.06 47.6802 493.989 52.5908 492.788 53.8128C491.589 55.0352 495.452 56.3791 496.462 52.302C497.472 48.225 496.06 47.6802 496.06 47.6802Z" fill="#E1A277"/>
<path d="M498.953 54.0129L500.329 55.7007C500.752 56.2185 501.542 56.3063 502.088 55.8961C502.632 55.4862 502.734 54.7273 502.311 54.2095L500.936 52.5224C500.513 52.0046 499.723 51.9175 499.178 52.3277C498.633 52.7369 498.531 53.4958 498.953 54.0129Z" fill="#E1A277"/>
<path d="M497.298 54.5738L498.608 56.3094C499.009 56.8411 499.796 56.9569 500.356 56.5664C500.917 56.1759 501.046 55.4209 500.644 54.8884L499.335 53.1529C498.934 52.6212 498.147 52.5054 497.587 52.8966C497.026 53.2864 496.896 54.0418 497.298 54.5738Z" fill="#E1A277"/>
<path d="M500.004 51.9301L501.772 54.0997C502.175 54.5936 502.931 54.6777 503.451 54.286C503.971 53.8946 504.067 53.1704 503.664 52.6765L501.896 50.5075C501.493 50.0136 500.737 49.9295 500.218 50.3209C499.697 50.712 499.601 51.4361 500.004 51.9301Z" fill="#E1A277"/>
<path d="M501.715 50.8922L502.946 52.4017C503.323 52.8649 504.032 52.9432 504.52 52.5771C505.007 52.2092 505.098 51.5309 504.72 51.0674L503.488 49.5572C503.111 49.0944 502.403 49.0157 501.915 49.3825C501.427 49.7497 501.337 50.4294 501.715 50.8922Z" fill="#E1A277"/>
<path d="M498.56 46C498.56 46 500.378 46.0663 503.488 49.5572C506.599 53.0492 497.745 55.166 497.788 55.2235C497.831 55.2803 494.887 52.1636 494.988 51.944C495.089 51.7238 496.06 47.6802 496.06 47.6802L498.56 46Z" fill="#E1A277"/>
<g filter="url(#filter0_d_807_12943)">
<path d="M94.5591 178.702L145.984 164.881L176.767 152.239L208.397 151.262L237.142 137.92H252.055L259.055 136.649L279.554 137.92H299.554L306.352 118.753L334.028 117.898L347.448 120.025L379.052 116.956L384.552 105.974L404.051 99.9847L432.05 110.966H476.549L570.624 91L615.794 180.97L622.946 237.684L639.722 285.46L619.899 317.082L642.907 391.099L663.748 426.04L676.072 490.221L667.026 534.727L689.559 593H94.5591L10.5119 544.077L43.3749 368.078L68.2043 234.437L78.4288 197.192L94.5591 178.702Z" fill="#FCFCFC"/>
</g>
<path d="M238.517 70.3493C240.576 69.2989 242.707 68.4212 244.91 67.717C245.39 67.5635 245.115 66.8313 244.637 66.9848C242.435 67.689 240.304 68.5659 238.244 69.617C237.8 69.843 238.069 70.5775 238.517 70.3493Z" fill="#060606"/>
<path d="M334.204 52.7101C335.64 50.8985 337.213 49.2143 338.923 47.6583C339.296 47.3191 338.742 46.7673 338.371 47.1057C336.661 48.6618 335.088 50.3452 333.651 52.1576C333.342 52.5476 333.891 53.104 334.204 52.7101Z" fill="#060606"/>
<path d="M245.362 86.7149C245.362 86.7149 240.144 99.8455 238.144 108.498C236.144 117.15 238.932 128.589 246.722 127.558C254.51 126.529 251.663 118.386 251.62 113.829C251.577 109.272 255.878 99.8259 256.269 100.217C256.66 100.607 267.081 99.9565 267.081 99.9565C267.081 99.9565 271.425 109.733 270.298 114.936C269.173 120.14 266.692 124.941 273.529 127.623C280.367 130.306 283.149 119.755 283.516 112.721C283.884 105.687 276.471 84.8345 276.471 84.8345L245.362 86.7149Z" fill="#FCFCFC"/>
<path d="M244.032 127.689L247.018 134.352C247.018 134.352 239.454 136.314 239.111 137.981C238.769 139.649 251.62 138.515 251.62 138.515L249.434 125.858L244.032 127.689Z" fill="#060606"/>
<path d="M276.027 127.689L273.041 134.352C273.041 134.352 280.605 136.314 280.948 137.981C281.29 139.649 268.439 138.515 268.439 138.515L270.625 125.858L276.027 127.689Z" fill="#060606"/>
<path d="M275.845 89.4308C277.586 93.1658 278.844 97.0586 279.635 101.101C279.732 101.594 280.485 101.385 280.389 100.893C279.584 96.7827 278.288 92.8321 276.52 89.0369C276.307 88.5813 275.633 88.9775 275.845 89.4308Z" fill="#060606"/>
<path d="M280.473 103.787C280.857 104.55 281.071 105.359 281.117 106.211C281.144 106.711 281.926 106.714 281.899 106.211C281.845 105.219 281.595 104.28 281.148 103.392C280.922 102.943 280.247 103.338 280.473 103.787Z" fill="#060606"/>
<path d="M240.783 122.529C241.472 124.001 242.767 125.072 244.333 125.498C244.818 125.63 245.026 124.877 244.541 124.744C243.155 124.367 242.066 123.432 241.458 122.135C241.245 121.68 240.57 122.076 240.783 122.529Z" fill="#060606"/>
<path d="M261.082 87.6046C266.453 86.8896 271.868 86.6176 277.324 86.5784C277.777 86.5745 278.239 86.5674 278.7 86.5604C278.016 83.547 275.063 71.194 271.278 65.0269C270.888 64.4076 270.499 63.8511 270.1 63.365C269.948 63.1855 270.25 65.1923 270.1 65.0269C264.969 59.7198 242.457 65.0269 242.457 65.0269C242.424 65.2072 237.244 65.5488 237.083 69.8674C236.956 73.0344 248.911 82.9059 248.806 83.642C256.986 84.8531 253.097 88.6683 261.082 87.6046Z" fill="#FCFCFC"/>
<path d="M245.362 86.7149C255.767 89.2502 266.137 88.6234 276.471 84.8345L275.263 78.8339C265.625 81.817 255.785 82.1101 245.765 80.0093L245.362 86.7149Z" fill="#060606"/>
<path d="M269.012 65.3907C269.669 67.4735 270.271 69.5711 270.818 71.6852C270.944 72.1713 271.698 71.9658 271.571 71.4781C271.025 69.3625 270.423 67.2656 269.765 65.1828C269.615 64.7053 268.86 64.9093 269.012 65.3907Z" fill="#060606"/>
<path d="M271.555 74.5292C271.694 75.1177 271.921 75.6734 272.233 76.1915C272.492 76.6222 273.168 76.2298 272.908 75.7969C272.629 75.3326 272.432 74.8481 272.309 74.3213C272.193 73.8313 271.44 74.0392 271.555 74.5292Z" fill="#060606"/>
<path d="M270.996 62.6936C261.258 65.6095 252.669 62.4208 252.481 62.3028C252.481 62.1629 267.979 61.1782 270.144 61.0367C270.433 61.5213 270.715 62.0762 270.996 62.6936Z" fill="#060606"/>
<path d="M283.517 45.1309C283.517 55.1432 272.18 63.2602 258.195 63.2602C244.211 63.2602 232.874 55.1432 232.874 45.1309C232.874 35.117 244.211 27 258.195 27C272.18 27 283.517 35.117 283.517 45.1309Z" fill="#FCFCFC"/>
<path d="M259.187 52.4945C244.072 52.4945 232.873 47.4778 232.873 47.4778L232.881 47.47C233.241 47.2191 244.924 39.1146 258.773 39.1146C272.599 39.1146 282.658 45.9147 283.423 46.3915L283.439 46.3993H283.446L283.455 46.4063C283.907 46.665 274.302 52.4945 259.187 52.4945Z" fill="#E1A277"/>
<path d="M283.423 46.3915C282.735 46.0632 271.536 40.8269 258.538 40.8269C245.339 40.8269 233.256 47.2746 232.881 47.47C233.241 47.2191 244.924 39.1146 258.773 39.1146C272.599 39.1146 282.658 45.9147 283.423 46.3915Z" fill="#B65D4B"/>
<path d="M239.865 47.1949L239.9 47.173C240.274 46.937 243.592 44.9824 247.081 44.9894C247.255 44.9894 247.43 44.9941 247.604 45.0042C249.553 45.1144 251.125 45.8702 252.213 46.6025C252.756 46.9682 253.177 47.3278 253.46 47.5935C253.602 47.7263 253.708 47.8358 253.779 47.9108L253.857 47.996L253.879 48.0218C254.019 48.1859 254.265 48.207 254.43 48.0671C254.595 47.928 254.615 47.681 254.476 47.5169C254.46 47.4973 253.818 46.7424 252.649 45.9546C251.481 45.1676 249.777 44.3454 247.649 44.2235C247.459 44.2125 247.269 44.2079 247.081 44.2079C243.06 44.2165 239.475 46.5228 239.444 46.5361C239.262 46.6517 239.209 46.8932 239.325 47.0753C239.441 47.2574 239.683 47.3106 239.865 47.1949Z" fill="#060606"/>
<path d="M278.939 46.5361C278.907 46.5228 275.323 44.2165 271.302 44.2079C271.114 44.2079 270.924 44.2125 270.734 44.2235C268.606 44.3454 266.902 45.1676 265.734 45.9546C264.564 46.7424 263.923 47.4973 263.907 47.5169C263.767 47.681 263.788 47.928 263.953 48.0671C264.117 48.207 264.364 48.1859 264.503 48.0218L264.526 47.996C264.78 47.7052 267.13 45.2043 270.779 45.0042C270.954 44.9941 271.128 44.9894 271.302 44.9894C273.162 44.9878 274.976 45.538 276.318 46.0929C276.99 46.3704 277.543 46.6478 277.927 46.8549C278.119 46.9589 278.269 47.0448 278.369 47.1042L278.483 47.173L278.518 47.1949C278.7 47.3106 278.942 47.2574 279.058 47.0753C279.174 46.8932 279.121 46.6517 278.939 46.5361Z" fill="#060606"/>
<path d="M237.838 38.0079C239.114 35.7852 241.423 34.2151 243.677 33.0991C244.127 32.8764 243.732 32.2019 243.283 32.4246C240.914 33.5969 238.503 35.2804 237.163 37.614C236.912 38.0509 237.588 38.4456 237.838 38.0079Z" fill="#060606"/>
<path d="M246.47 31.9182C246.914 31.5923 247.389 31.3805 247.928 31.2703C248.42 31.1695 248.213 30.4161 247.721 30.5161C247.122 30.6388 246.569 30.8819 246.076 31.2429C245.674 31.5376 246.064 32.216 246.47 31.9182Z" fill="#060606"/>
<path d="M300.382 58.5L297.56 57C297.56 57 292.505 64.3169 286.56 65C280.614 65.6823 269.56 61 269.56 61L264.382 62.6644L269.858 71.7462C269.858 71.7462 284.241 73.0066 289.835 69.9101C295.427 66.812 300.382 58.5 300.382 58.5Z" fill="#FCFCFC"/>
<path d="M280.287 66.4856C281.708 66.6927 283.127 66.7826 284.562 66.738C285.064 66.7232 285.067 65.9416 284.562 65.9565C283.199 65.9987 281.845 65.9291 280.495 65.7314C280.004 65.6595 279.791 66.4129 280.287 66.4856Z" fill="#060606"/>
<path d="M297.679 57.8336C297.679 57.8336 294.552 54.5332 292.983 53.9697C291.414 53.4054 294.097 50.5075 296.785 53.704C299.474 56.9005 297.679 57.8336 297.679 57.8336Z" fill="#E1A277"/>
<path d="M298.136 51.0812L298.548 48.9695C298.675 48.3216 299.308 47.8957 299.956 48.0223C300.603 48.1489 301.03 48.7819 300.903 49.4298L300.49 51.5408C300.364 52.1887 299.731 52.6138 299.083 52.4872C298.436 52.3614 298.009 51.7283 298.136 51.0812Z" fill="#E1A277"/>
<path d="M296.477 51.3078L296.811 49.1828C296.914 48.5318 297.531 48.0824 298.183 48.1848C298.835 48.2872 299.283 48.9046 299.181 49.5564L298.846 51.6814C298.744 52.3324 298.127 52.7818 297.475 52.6786C296.823 52.577 296.374 51.9596 296.477 51.3078Z" fill="#E1A277"/>
<path d="M299.964 52.4785L300.494 49.7642C300.615 49.146 301.22 48.7388 301.838 48.86C302.455 48.9811 302.862 49.5853 302.741 50.2035L302.211 52.9169C302.09 53.5351 301.485 53.9423 300.868 53.8212C300.25 53.7008 299.843 53.0967 299.964 52.4785Z" fill="#E1A277"/>
<path d="M301.885 52.6537L302.255 50.7647C302.367 50.1856 302.935 49.8042 303.514 49.9167C304.094 50.0309 304.475 50.5967 304.362 51.1766L303.992 53.0663C303.879 53.6455 303.312 54.0269 302.733 53.9135C302.153 53.8002 301.772 53.2328 301.885 52.6537Z" fill="#E1A277"/>
<path d="M299.983 59.1395C299.983 59.1395 302.914 57.55 303.992 53.0663C305.071 48.5811 296.591 50.5825 296.602 50.5121C296.613 50.4426 295.508 54.5191 295.693 54.6707C295.877 54.8231 297.554 57.7632 297.554 57.7632L299.983 59.1395Z" fill="#E1A277"/>
<path d="M499.56 47.5L498.06 49.5C498.06 49.5 492.308 43.2458 485.7 42.484C479.091 41.7232 467.104 46.1207 467.104 46.1207L467.288 34.2831C467.288 34.2831 483.276 32.8775 489.493 36.3306C495.709 39.7855 499.56 47.5 499.56 47.5Z" fill="#FCFCFC"/>
<path d="M484.66 41.4857C486.06 41.5 487.56 41.5 488.935 41.7381C489.437 41.7233 489.439 40.9417 488.935 40.9566C487.56 40.7315 486.239 40.7315 484.868 40.7315C484.376 40.6596 484.163 41.413 484.66 41.4857Z" fill="#060606"/>
<path d="M441.406 100.689L444.391 107.352C444.391 107.352 436.827 109.314 436.484 110.981C436.142 112.649 448.993 111.515 448.993 111.515L446.807 98.858L441.406 100.689Z" fill="#060606"/>
<path d="M473.4 100.689L470.414 107.352C470.414 107.352 477.978 109.314 478.321 110.981C478.663 112.649 465.812 111.515 465.812 111.515L467.998 98.858L473.4 100.689Z" fill="#060606"/>
<path d="M442.735 59.7149C442.735 59.7149 437.517 72.8455 435.517 81.4979C433.517 90.1503 436.305 101.589 444.095 100.558C451.883 99.5287 449.035 91.3858 448.992 86.8287C448.949 82.2716 453.251 72.8259 453.642 73.2167C454.033 73.6075 464.454 72.9565 464.454 72.9565C464.454 72.9565 468.798 82.7327 467.671 87.936C466.546 93.1397 464.065 97.9415 470.902 100.623C477.74 103.306 480.522 92.755 480.889 85.7213C481.257 78.6875 473.844 57.8345 473.844 57.8345L442.735 59.7149Z" fill="#FCFCFC"/>
<path d="M473.217 62.4309C474.958 66.1658 476.216 70.0587 477.007 74.1008C477.104 74.5939 477.857 74.3853 477.761 73.8929C476.956 69.7828 475.661 65.8321 473.892 62.037C473.679 61.5813 473.006 61.9776 473.217 62.4309Z" fill="#060606"/>
<path d="M469.846 76.7869C470.23 77.5497 470.444 78.3594 470.49 79.2113C470.517 79.7115 471.299 79.7146 471.272 79.2113C471.218 78.2187 470.968 77.2801 470.521 76.3923C470.295 75.9429 469.62 76.3383 469.846 76.7869Z" fill="#060606"/>
<path d="M438.156 95.5295C438.845 97.0013 440.14 98.0719 441.706 98.4978C442.191 98.63 442.399 97.8765 441.914 97.7437C440.528 97.367 439.439 96.4322 438.831 95.135C438.618 94.6802 437.944 95.0764 438.156 95.5295Z" fill="#060606"/>
<path d="M458.455 59.6046C463.826 58.8896 469.241 58.6176 474.697 58.5784C475.15 58.5745 475.612 58.5674 476.073 58.5604C475.389 55.547 472.436 43.194 468.651 37.0269C468.261 36.4076 467.872 35.8511 467.473 35.365C467.321 35.1855 467.623 37.1923 467.473 37.0269C462.342 31.7198 439.83 37.0269 439.83 37.0269C439.797 37.2072 434.617 37.5488 434.456 41.8674C434.329 45.0344 446.284 54.9059 446.179 55.642C454.359 56.8531 450.471 60.6683 458.455 59.6046Z" fill="#FCFCFC"/>
<path d="M468.928 47.5292C469.067 48.1177 469.294 48.6733 469.606 49.1915C469.865 49.6221 470.541 49.2298 470.281 48.7968C470.002 48.3326 469.806 47.848 469.682 47.3213C469.566 46.8313 468.813 47.0391 468.928 47.5292Z" fill="#060606"/>
<path d="M466.385 38.3907C467.043 40.4735 467.644 42.5712 468.191 44.6852C468.317 45.1713 469.071 44.9658 468.945 44.4781C468.398 42.3625 467.797 40.2656 467.139 38.1828C466.988 37.7053 466.234 37.9093 466.385 38.3907Z" fill="#060606"/>
<path d="M442.734 59.7149C453.14 62.2502 463.51 61.6235 473.843 57.8346L472.635 51.8339C462.997 54.817 453.157 55.1101 443.138 53.0094L442.734 59.7149Z" fill="#060606"/>
<path d="M468.368 35.6937C458.63 38.6096 450.041 35.4209 449.854 35.3029C449.854 35.163 465.351 34.1783 467.516 34.0368C467.805 34.5214 468.087 35.0762 468.368 35.6937Z" fill="#060606"/>
<path d="M480.889 18.1309C480.889 28.1432 469.552 36.2602 455.567 36.2602C441.583 36.2602 430.246 28.1432 430.246 18.1309C430.246 8.11704 441.583 0 455.567 0C469.552 0 480.889 8.11704 480.889 18.1309Z" fill="#FCFCFC"/>
<path d="M456.559 25.4943C441.444 25.4943 430.245 20.4776 430.245 20.4776L430.253 20.4698C430.613 20.219 442.296 12.1144 456.145 12.1144C469.971 12.1144 480.03 18.9146 480.795 19.3913L480.811 19.3991H480.818L480.827 19.4062C481.279 19.6648 471.674 25.4943 456.559 25.4943Z" fill="#E1A277"/>
<path d="M480.795 19.3913C480.107 19.0631 468.908 13.8268 455.911 13.8268C442.711 13.8268 430.628 20.2744 430.253 20.4698C430.613 20.219 442.296 12.1144 456.145 12.1144C469.971 12.1144 480.03 18.9146 480.795 19.3913Z" fill="#B65D4B"/>
<path d="M437.237 20.1947L437.272 20.1728C437.646 19.9368 440.964 17.9822 444.453 17.9892C444.627 17.9892 444.802 17.9939 444.976 18.0041C446.925 18.1143 448.497 18.87 449.585 19.6023C450.128 19.9681 450.55 20.3276 450.833 20.5933C450.974 20.7262 451.08 20.8356 451.151 20.9106L451.23 20.9958L451.251 21.0216C451.391 21.1857 451.638 21.2068 451.802 21.0669C451.967 20.9278 451.988 20.6808 451.849 20.5167C451.832 20.4972 451.19 19.7422 450.021 18.9544C448.853 18.1674 447.149 17.3452 445.021 17.2233C444.831 17.2124 444.641 17.2077 444.453 17.2077C440.432 17.2163 436.848 19.5226 436.816 19.5359C436.634 19.6515 436.581 19.893 436.697 20.0751C436.813 20.2572 437.055 20.3104 437.237 20.1947Z" fill="#060606"/>
<path d="M476.311 19.5359C476.28 19.5226 472.696 17.2163 468.675 17.2077C468.486 17.2077 468.296 17.2124 468.106 17.2233C465.978 17.3452 464.274 18.1674 463.106 18.9544C461.936 19.7422 461.295 20.4972 461.279 20.5167C461.14 20.6808 461.16 20.9278 461.325 21.0669C461.489 21.2068 461.736 21.1857 461.875 21.0216L461.898 20.9958C462.152 20.7051 464.503 18.2041 468.151 18.0041C468.326 17.9939 468.5 17.9892 468.675 17.9892C470.534 17.9877 472.348 18.5379 473.69 19.0927C474.362 19.3702 474.915 19.6476 475.3 19.8547C475.491 19.9587 475.641 20.0447 475.741 20.104L475.855 20.1728L475.89 20.1947C476.073 20.3104 476.314 20.2572 476.43 20.0751C476.546 19.893 476.493 19.6515 476.311 19.5359Z" fill="#060606"/>
<path d="M435.209 11.0078C436.485 8.78512 438.794 7.21502 441.049 6.09899C441.499 5.87625 441.103 5.20178 440.654 5.42452C438.285 6.59682 435.874 8.28026 434.534 10.6139C434.284 11.0508 434.959 11.4455 435.209 11.0078Z" fill="#060606"/>
<path d="M443.843 4.91819C444.287 4.59229 444.761 4.38049 445.3 4.27029C445.793 4.16947 445.585 3.41608 445.093 3.51612C444.495 3.63882 443.941 3.88188 443.448 4.24295C443.046 4.53759 443.436 5.21595 443.843 4.91819Z" fill="#060606"/>
<path fill-rule="evenodd" clip-rule="evenodd" d="M906.059 51.1503C779.059 52.0252 621.56 52.9002 499.56 52.9002C497.725 52.9002 495.62 52.6662 493.266 52.4045C492.292 52.2963 491.277 52.1834 490.22 52.0804C486.612 51.7285 482.539 51.4935 478.086 51.9632C469.176 52.9032 458.755 56.6636 447.489 67.9295C441.883 73.5362 435.964 75.6132 430.143 75.6265C424.317 75.6398 418.579 73.5863 413.339 70.9163C409.2 68.8073 405.379 66.3177 402.072 64.1634C401.192 63.59 400.348 63.0404 399.545 62.5281C397.636 61.3108 395.951 60.3022 394.547 59.6894C393.844 59.383 393.207 59.1737 392.644 59.0878C392.081 59.002 391.585 59.0386 391.17 59.2319C390.538 59.5269 389.768 59.9041 388.896 60.3318C385.443 62.0243 380.378 64.5071 375.814 65.8069C372.954 66.6217 370.312 66.9645 368.396 66.3725C367.442 66.0776 366.67 65.5516 366.137 64.7368C365.604 63.9206 365.304 62.8056 365.313 61.323L365.314 61.2021L365.195 61.2241L364.738 61.3083C364.44 61.3633 364.002 61.4438 363.443 61.5464C362.324 61.7514 360.718 62.0444 358.773 62.3959C354.883 63.099 349.633 64.0365 344.196 64.9739C338.759 65.9114 333.134 66.8487 328.495 67.5517C323.851 68.2553 320.204 68.7225 318.713 68.7225C317.239 68.7225 315.508 68.0765 313.669 67.0171C311.833 65.9589 309.901 64.4946 308.029 62.8719C304.284 59.6266 300.788 55.7562 298.791 53.26C298.658 53.093 298.508 52.9766 298.341 52.9149C298.174 52.8529 297.997 52.8489 297.814 52.8948C297.454 52.9853 297.067 53.271 296.658 53.7019C295.838 54.5666 294.883 56.067 293.829 57.9852C292.258 60.8422 290.452 64.6478 288.525 68.7119C287.862 70.1089 287.185 71.5365 286.498 72.9667C283.81 78.5609 280.969 84.1951 278.24 88.2116C276.874 90.2204 275.541 91.8176 274.275 92.8031C273.007 93.7893 271.826 94.148 270.749 93.7293C269.609 93.286 267.956 93.0197 265.949 92.9072C263.94 92.7946 261.568 92.8358 258.987 93.0118C253.826 93.3637 247.82 94.2551 242.191 95.5375C236.562 96.8195 231.303 98.4937 227.635 100.414C225.803 101.373 224.359 102.398 223.468 103.472C222.575 104.55 222.229 105.686 222.618 106.854L222.808 106.791C222.447 105.708 222.758 104.642 223.622 103.6C224.489 102.555 225.905 101.545 227.728 100.591C231.373 98.6825 236.614 97.0129 242.235 95.7325C247.855 94.4523 253.85 93.5625 259.001 93.2113C261.576 93.0357 263.939 92.9949 265.938 93.1069C267.938 93.219 269.566 93.4839 270.677 93.9157C271.85 94.3719 273.107 93.965 274.397 92.961C275.689 91.9562 277.036 90.3386 278.405 88.324C281.144 84.2935 283.991 78.6465 286.678 73.0533C287.367 71.6201 288.045 70.1906 288.708 68.7925C290.635 64.7302 292.436 60.9329 294.004 58.0816C295.058 56.1638 296.002 54.6838 296.803 53.8395C297.205 53.4159 297.559 53.165 297.863 53.0888C298.012 53.0513 298.147 53.0563 298.272 53.1024C298.397 53.1488 298.519 53.2394 298.635 53.3849C300.638 55.8887 304.142 59.7683 307.898 63.023C309.775 64.6504 311.718 66.1235 313.569 67.1904C315.419 68.2559 317.187 68.9225 318.713 68.9225C320.222 68.9225 323.887 68.4521 328.525 67.7495C333.166 67.0462 338.792 66.1086 344.23 65.171C349.668 64.2334 354.918 63.2959 358.809 62.5927C360.754 62.2412 362.36 61.9482 363.479 61.7431C364.039 61.6405 364.477 61.56 364.775 61.505L365.113 61.4427C365.121 62.8927 365.424 64.0109 365.97 64.8463C366.532 65.7061 367.346 66.2572 368.337 66.5635C370.313 67.1739 373.003 66.8156 375.869 65.9992C380.452 64.6938 385.542 62.199 388.993 60.5069C389.862 60.0808 390.628 59.7057 391.255 59.4132C391.622 59.242 392.075 59.2033 392.614 59.2856C393.153 59.3678 393.772 59.57 394.467 59.8728C395.856 60.4785 397.528 61.4793 399.437 62.6967C400.238 63.2072 401.08 63.7555 401.958 64.328C405.266 66.4828 409.099 68.9802 413.249 71.0945C418.501 73.7709 424.272 75.8399 430.143 75.8265C436.019 75.813 441.987 73.7142 447.631 68.0709C458.865 56.8368 469.243 53.0972 478.107 52.1621C482.541 51.6944 486.599 51.9281 490.201 52.2794C491.249 52.3817 492.26 52.494 493.231 52.602C495.591 52.8643 497.713 53.1002 499.56 53.1002C621.56 53.1002 779.061 52.2252 906.061 51.3503L906.059 51.1503Z" fill="#060606"/>
<path fill-rule="evenodd" clip-rule="evenodd" d="M906.159 51.7501C779.159 52.6251 621.66 53.5001 499.66 53.5001C497.825 53.5001 495.72 53.266 493.366 53.0044C492.393 52.8962 491.377 52.7833 490.32 52.6802C486.713 52.3284 482.639 52.0933 478.186 52.5631C469.276 53.5031 458.855 57.2635 447.589 68.5293C441.983 74.136 436.065 76.213 430.243 76.2263C424.417 76.2396 418.68 74.1861 413.44 71.5162C409.301 69.4072 405.479 66.9175 402.172 64.7633C401.292 64.1899 400.449 63.6403 399.645 63.1279C397.736 61.9106 396.052 60.902 394.647 60.2893C393.944 59.9829 393.307 59.7735 392.744 59.6877C392.181 59.6018 391.685 59.6385 391.271 59.8318C390.638 60.1267 389.868 60.504 388.996 60.9317C385.543 62.6241 380.478 65.107 375.914 66.4068C373.054 67.2215 370.413 67.5644 368.496 66.9723C367.542 66.6775 366.77 66.1515 366.238 65.3367C365.704 64.5205 365.404 63.4054 365.413 61.9229L365.414 61.802L365.295 61.824L364.839 61.9082C364.54 61.9631 364.103 62.0437 363.543 62.1462C362.424 62.3513 360.819 62.6442 358.873 62.9958C354.983 63.6989 349.733 64.6363 344.296 65.5738C338.859 66.5112 333.235 67.4486 328.595 68.1516C323.951 68.8552 320.304 69.3223 318.813 69.3223C317.339 69.3223 315.608 68.6764 313.769 67.6169C311.933 66.5588 310.001 65.0944 308.129 63.4717C304.384 60.2265 300.888 56.3561 298.891 53.8598C298.758 53.6929 298.608 53.5765 298.441 53.5147C298.274 53.4528 298.097 53.4487 297.914 53.4946C297.554 53.5852 297.167 53.8708 296.758 54.3017C295.938 55.1665 294.984 56.6669 293.929 58.5851C292.358 61.4421 290.553 65.2477 288.625 69.3118C287.962 70.7088 287.285 72.1364 286.598 73.5665C283.91 79.1608 281.069 84.795 278.34 88.8114C276.974 90.8203 275.642 92.4175 274.375 93.403C273.107 94.3891 271.926 94.7478 270.849 94.3291C269.709 93.8859 268.056 93.6195 266.049 93.507C264.04 93.3944 261.668 93.4356 259.087 93.6116C253.926 93.9636 247.921 94.855 242.291 96.1373C236.663 97.4193 231.403 99.0935 227.736 101.013C225.903 101.973 224.459 102.998 223.568 104.072C222.675 105.149 222.329 106.286 222.718 107.454L222.908 107.391C222.547 106.308 222.858 105.242 223.722 104.2C224.589 103.155 226.005 102.145 227.828 101.191C231.473 99.2824 236.714 97.6128 242.335 96.3323C247.956 95.0521 253.95 94.1623 259.101 93.8111C261.676 93.6356 264.039 93.5947 266.038 93.7067C268.038 93.8188 269.667 94.0838 270.777 94.5155C271.95 94.9718 273.207 94.5649 274.497 93.5608C275.789 92.5561 277.136 90.9384 278.505 88.9238C281.244 84.8934 284.091 79.2464 286.778 73.6531C287.467 72.22 288.145 70.7905 288.808 69.3923C290.735 65.3301 292.536 61.5328 294.104 58.6814C295.159 56.7637 296.103 55.2836 296.903 54.4394C297.305 54.0158 297.659 53.7649 297.963 53.6886C298.112 53.6511 298.247 53.6562 298.372 53.7023C298.497 53.7486 298.619 53.8392 298.735 53.9848C300.738 56.4885 304.242 60.3682 307.998 63.6229C309.875 65.2502 311.818 66.7234 313.67 67.7902C315.519 68.8558 317.287 69.5223 318.813 69.5223C320.322 69.5223 323.987 69.052 328.625 68.3493C333.267 67.646 338.892 66.7084 344.33 65.7709C349.768 64.8333 355.018 63.8958 358.909 63.1926C360.854 62.841 362.46 62.548 363.579 62.3429C364.139 62.2404 364.577 62.1598 364.875 62.1049L365.213 62.0425C365.221 63.4925 365.524 64.6107 366.07 65.4461C366.632 66.3059 367.446 66.8571 368.437 67.1634C370.413 67.7738 373.103 67.4155 375.969 66.5991C380.552 65.2937 385.642 62.7988 389.093 61.1067C389.963 60.6807 390.728 60.3055 391.355 60.0131C391.722 59.8419 392.175 59.8032 392.714 59.8854C393.253 59.9676 393.872 60.1698 394.567 60.4726C395.956 61.0784 397.629 62.0792 399.538 63.2965C400.338 63.8071 401.18 64.3554 402.059 64.9279C405.366 67.0826 409.199 69.58 413.349 71.6944C418.601 74.3708 424.372 76.4397 430.243 76.4263C436.119 76.4129 442.088 74.3141 447.731 68.6708C458.965 57.4366 469.343 53.6971 478.207 52.762C482.641 52.2943 486.699 52.528 490.301 52.8793C491.349 52.9815 492.36 53.0939 493.331 53.2018C495.691 53.4641 497.813 53.7001 499.66 53.7001C621.661 53.7001 779.161 52.8251 906.161 51.9501L906.159 51.7501Z" fill="#060606"/>
<path fill-rule="evenodd" clip-rule="evenodd" d="M905.964 50.8882C779 51.7354 621.545 52.5826 499.58 52.5826C497.734 52.5826 495.612 52.3542 493.253 52.1002C492.282 51.9957 491.272 51.8869 490.224 51.7879C486.623 51.4478 482.566 51.2215 478.133 51.6743C469.272 52.5797 458.897 56.2006 447.666 67.0782C442.024 72.5424 436.057 74.5747 430.183 74.5877C424.314 74.6006 418.545 72.5974 413.294 70.0059C409.145 67.9587 405.313 65.5405 402.007 63.4541C401.128 62.8998 400.287 62.3689 399.487 61.8746C397.578 60.6958 395.906 59.7268 394.517 59.1403C393.823 58.8471 393.204 58.6513 392.665 58.5717C392.126 58.4921 391.673 58.5296 391.306 58.6953C390.68 58.9783 389.915 59.3413 389.047 59.7535L389.045 59.7543C385.595 61.3927 380.507 63.8084 375.925 65.0723C373.06 65.8628 370.37 66.2097 368.395 65.6187C367.404 65.3221 366.591 64.7885 366.029 63.9559C365.483 63.1471 365.18 62.0643 365.172 60.6603L364.834 60.7207C364.536 60.7739 364.098 60.852 363.538 60.9512C362.419 61.1498 360.814 61.4335 358.87 61.7739C354.98 62.4548 349.731 63.3626 344.295 64.2704C338.859 65.1782 333.235 66.086 328.594 66.767C323.958 67.4474 320.294 67.9028 318.785 67.9028C317.26 67.9028 315.492 67.2574 313.643 66.2256C311.793 65.1927 309.85 63.7663 307.973 62.1906C304.219 59.0391 300.715 55.2826 298.713 52.8583C298.597 52.7174 298.475 52.6297 298.35 52.5848C298.225 52.5402 298.09 52.5353 297.941 52.5716C297.638 52.6454 297.284 52.8883 296.882 53.2985C296.081 54.116 295.138 55.549 294.083 57.4059C292.516 60.1668 290.715 63.8436 288.789 67.7769L288.788 67.7789C288.125 69.1321 287.448 70.5155 286.76 71.9025C284.073 77.3182 281.227 82.786 278.489 86.6886C277.12 88.6392 275.774 90.2055 274.482 91.1784C273.192 92.1506 271.936 92.5446 270.763 92.1028C269.653 91.6847 268.025 91.4282 266.025 91.3197C264.027 91.2112 261.665 91.2508 259.091 91.4208C253.941 91.7608 247.948 92.6224 242.33 93.8619C236.71 95.1018 231.471 96.7184 227.827 98.566C226.004 99.4903 224.588 100.468 223.722 101.48C222.858 102.489 222.547 103.521 222.908 104.569L222.718 104.631C222.329 103.5 222.675 102.399 223.568 101.356C224.459 100.316 225.902 99.3236 227.734 98.3945C231.4 96.5355 236.658 94.9145 242.285 93.6731C247.913 92.4315 253.917 91.5683 259.077 91.2276C261.657 91.0572 264.028 91.0173 266.037 91.1263C268.043 91.2353 269.696 91.4931 270.835 91.9223C271.912 92.3278 273.092 91.9804 274.36 91.0255C275.626 90.0713 276.959 88.5248 278.324 86.5797C281.052 82.6907 283.893 77.2353 286.58 71.8186C287.266 70.4351 287.942 69.0541 288.604 67.7025L288.606 67.6989C290.533 63.7638 292.338 60.079 293.908 57.3126C294.963 55.4553 295.917 54.0025 296.737 53.1652C297.145 52.748 297.532 52.4714 297.892 52.3837C298.075 52.3393 298.252 52.3432 298.419 52.4032C298.586 52.463 298.736 52.5757 298.869 52.7374C300.866 55.1544 304.36 58.9019 308.104 62.0442C309.976 63.6154 311.907 65.0333 313.743 66.0578C315.581 67.0837 317.312 67.7091 318.785 67.7091C320.276 67.7091 323.922 67.2568 328.564 66.5755C333.203 65.8949 338.825 64.9872 344.261 64.0795C349.696 63.1718 354.945 62.2641 358.834 61.5834C360.779 61.243 362.384 60.9593 363.502 60.7608C364.062 60.6615 364.5 60.5835 364.798 60.5303L365.254 60.4488L365.372 60.4274L365.372 60.5445C365.363 61.98 365.663 63.0597 366.196 63.85C366.729 64.6389 367.5 65.1482 368.454 65.4337C370.37 66.0069 373.01 65.675 375.87 64.8861C380.432 63.6275 385.496 61.2235 388.948 59.5847C389.82 59.1706 390.59 58.8053 391.222 58.5198C391.636 58.3326 392.132 58.2971 392.695 58.3803C393.258 58.4634 393.895 58.6661 394.597 58.9628C396.002 59.556 397.686 60.5326 399.594 61.7113C400.397 62.2074 401.241 62.7396 402.12 63.2947C405.426 65.3806 409.247 67.7913 413.384 69.8333C418.623 72.4186 424.359 74.4069 430.183 74.394C436.003 74.3811 441.919 72.3701 447.525 66.9413C458.787 56.0329 469.205 52.3919 478.112 51.4818C482.564 51.0269 486.636 51.2545 490.243 51.5952C491.299 51.6949 492.315 51.8043 493.288 51.909C495.641 52.1624 497.745 52.389 499.58 52.389C621.545 52.389 778.999 51.5418 905.962 50.6946L905.964 50.8882Z" fill="#060606"/>
<path d="M468.902 58.5917C468.902 58.5917 472.096 59.5494 476.036 57.1511C479.975 54.7535 472.577 50.1523 472.634 50.1109C472.692 50.0696 469.022 52.1605 469.045 52.3989C469.068 52.6366 468.165 55.8992 468.165 55.8992L468.902 58.5917Z" fill="#E1A277"/>
<path d="M437.204 45.7102C438.64 43.8986 440.213 42.2144 441.923 40.6583C442.296 40.3191 441.742 39.7674 441.371 40.1058C439.661 41.6618 438.088 43.3452 436.651 45.1576C436.342 45.5476 436.891 46.1041 437.204 45.7102Z" fill="#060606"/>
<path d="M471.982 50.5826L473.725 49.3217C474.258 48.935 475.012 49.0556 475.399 49.5905C475.786 50.1246 475.665 50.8787 475.131 51.2655L473.389 52.5265C472.854 52.9134 472.1 52.7926 471.713 52.2578C471.326 51.7237 471.447 50.9696 471.982 50.5826Z" fill="#E1A277"/>
<path d="M468.903 58.6013L468.194 56.0164C468.194 56.0164 459.987 57.1371 454.879 53.3099C449.771 49.4817 443.903 38.9565 443.903 38.9565L437.077 46.4135C437.077 46.4135 447.526 57.6883 453.938 59.5918C460.35 61.4957 468.903 58.6013 468.903 58.6013Z" fill="#FCFCFC"/>
<path d="M473.61 53.8806L475.909 52.3433C476.432 51.9928 477.147 52.1346 477.496 52.6584C477.847 53.1812 477.705 53.8964 477.182 54.2461L474.883 55.7839C474.361 56.1346 473.646 55.9928 473.296 55.4691C472.946 54.9455 473.088 54.231 473.61 53.8806Z" fill="#E1A277"/>
<path d="M473.313 51.5993L475.101 50.4029C475.649 50.0364 476.398 50.1844 476.764 50.7335C477.131 51.281 476.983 52.0302 476.434 52.3967L474.647 53.593C474.099 53.9595 473.35 53.8116 472.983 53.2632C472.616 52.715 472.765 51.9658 473.313 51.5993Z" fill="#E1A277"/>
<path d="M474.841 55.367L476.441 54.2964C476.931 53.9682 477.602 54.101 477.93 54.5918C478.258 55.0827 478.126 55.7523 477.635 56.0809L476.036 57.1511C475.545 57.4801 474.874 57.347 474.546 56.8561C474.218 56.3655 474.351 55.6951 474.841 55.367Z" fill="#E1A277"/>
<path d="M468.085 56C468.085 56 468.338 51.4931 467.631 49.9838C466.925 48.4736 470.872 48.3317 470.501 52.492C470.131 56.6523 468.085 56 468.085 56Z" fill="#E1A277"/>
<path d="M263.191 95.2618C263.191 95.2618 265.8 97.3396 270.349 96.5798C274.898 95.8206 269.744 88.7965 269.812 88.7794C269.881 88.7624 265.697 89.3375 265.63 89.5673C265.562 89.7961 263.51 92.4886 263.51 92.4886L263.191 95.2618Z" fill="#E1A277"/>
<path d="M238.565 71.5082C240.572 70.3613 242.659 69.3836 244.826 68.5758C245.298 68.3997 244.989 67.6814 244.518 67.8573C242.352 68.6651 240.265 69.6421 238.257 70.7897C237.825 71.0364 238.128 71.7574 238.565 71.5082Z" fill="#060606"/>
<path d="M269.031 88.9744L271.118 88.4527C271.757 88.2923 272.412 88.6849 272.572 89.3253C272.732 89.965 272.34 90.6201 271.7 90.7804L269.613 91.3021C268.973 91.4622 268.318 91.0697 268.158 90.4293C267.998 89.7896 268.391 89.1345 269.031 88.9744Z" fill="#E1A277"/>
<path d="M263.189 95.2713L263.492 92.6078C263.492 92.6078 255.458 90.5937 252.142 85.1403C248.826 79.6863 247.296 67.733 247.296 67.733L238.185 72.1138C238.185 72.1138 243.687 86.4674 248.93 90.6208C254.174 94.7744 263.189 95.2713 263.189 95.2713Z" fill="#FCFCFC"/>
<path d="M269.315 92.6415L272.02 92.0701C272.637 91.9395 273.247 92.3371 273.377 92.9534C273.508 93.5691 273.11 94.1802 272.494 94.3101L269.788 94.8819C269.172 95.0128 268.562 94.6153 268.432 93.999C268.302 93.3825 268.699 92.7722 269.315 92.6415Z" fill="#E1A277"/>
<path d="M269.888 90.4134L271.993 89.9683C272.638 89.8323 273.278 90.2482 273.414 90.8943C273.551 91.539 273.134 92.1791 272.488 92.3152L270.384 92.7604C269.739 92.8965 269.099 92.4805 268.963 91.8351C268.826 91.1896 269.243 90.5495 269.888 90.4134Z" fill="#E1A277"/>
<path d="M269.904 94.4792L271.787 94.0809C272.365 93.9588 272.938 94.3316 273.06 94.9094C273.182 95.4872 272.81 96.0595 272.232 96.1817L270.349 96.5798C269.771 96.7023 269.198 96.3293 269.076 95.7515C268.954 95.174 269.327 94.6012 269.904 94.4792Z" fill="#E1A277"/>
<path d="M263.398 92.5523C263.398 92.5523 265.31 88.4633 265.216 86.7993C265.122 85.1346 268.839 86.472 266.946 90.1955C265.054 93.9191 263.398 92.5523 263.398 92.5523Z" fill="#E1A277"/>
<path d="M395.104 56.0675L393.06 56.5C393.06 56.5 387.308 50.2458 380.7 49.484C374.091 48.7232 362.104 53.1207 362.104 53.1207L362.288 41.2831C362.288 41.2831 378.276 39.8775 384.493 43.3306C390.709 46.7855 395.104 56.0675 395.104 56.0675Z" fill="#FCFCFC"/>
<path d="M379.66 48.4857C381.06 48.5 382.56 48.5 383.935 48.7381C384.437 48.7233 384.439 47.9417 383.935 47.9566C382.56 47.7315 381.239 47.7315 379.868 47.7315C379.376 47.6596 379.163 48.413 379.66 48.4857Z" fill="#060606"/>
<path d="M338.406 107.689L341.391 114.352C341.391 114.352 333.827 116.314 333.484 117.981C333.142 119.649 345.993 118.515 345.993 118.515L343.807 105.858L338.406 107.689Z" fill="#060606"/>
<path d="M370.4 107.689L367.414 114.352C367.414 114.352 374.978 116.314 375.321 117.981C375.663 119.649 362.812 118.515 362.812 118.515L364.998 105.858L370.4 107.689Z" fill="#060606"/>
<path d="M339.735 66.7149C339.735 66.7149 334.517 79.8455 332.517 88.4979C330.517 97.1503 333.305 108.589 341.095 107.558C348.883 106.529 346.035 98.3858 345.992 93.8287C345.949 89.2716 350.251 79.8259 350.642 80.2167C351.033 80.6075 361.454 79.9565 361.454 79.9565C361.454 79.9565 365.798 89.7327 364.671 94.936C363.546 100.14 361.065 104.941 367.902 107.623C374.74 110.306 377.522 99.755 377.889 92.7213C378.257 85.6875 370.844 64.8345 370.844 64.8345L339.735 66.7149Z" fill="#FCFCFC"/>
<path d="M355.455 66.6046C360.826 65.8896 366.241 65.6176 371.697 65.5784C372.15 65.5745 372.612 65.5674 373.073 65.5604C372.389 62.547 369.436 50.194 365.651 44.0269C365.261 43.4076 364.872 42.8511 364.473 42.365C364.321 42.1855 364.623 44.1923 364.473 44.0269C359.342 38.7198 336.83 44.0269 336.83 44.0269C336.797 44.2072 331.617 44.5488 331.456 48.8674C331.329 52.0344 343.284 61.9059 343.179 62.642C351.359 63.8531 347.471 67.6683 355.455 66.6046Z" fill="#FCFCFC"/>
<path d="M339.735 66.7149C350.14 69.2502 360.51 68.6234 370.844 64.8345L369.635 58.834C359.997 61.8172 350.157 62.1103 340.138 60.0095L339.735 66.7149Z" fill="#060606"/>
<path d="M370.217 69.4309C371.958 73.1658 373.216 77.0587 374.007 81.1008C374.104 81.5939 374.857 81.3853 374.761 80.8929C373.956 76.7828 372.661 72.8321 370.892 69.037C370.679 68.5813 370.006 68.9776 370.217 69.4309Z" fill="#060606"/>
<path d="M374.846 83.7869C375.23 84.5497 375.444 85.3593 375.49 86.2112C375.517 86.7114 376.299 86.7145 376.272 86.2112C376.218 85.2187 375.968 84.28 375.521 83.3922C375.295 82.9428 374.621 83.3383 374.846 83.7869Z" fill="#060606"/>
<path d="M335.156 102.529C335.845 104.001 337.14 105.072 338.706 105.498C339.191 105.63 339.399 104.877 338.914 104.744C337.528 104.367 336.439 103.432 335.831 102.135C335.618 101.68 334.944 102.076 335.156 102.529Z" fill="#060606"/>
<path d="M363.385 45.3907C364.043 47.4735 364.644 49.5712 365.191 51.6852C365.317 52.1713 366.071 51.9658 365.945 51.4781C365.398 49.3625 364.797 47.2656 364.139 45.1828C363.988 44.7053 363.234 44.9093 363.385 45.3907Z" fill="#060606"/>
<path d="M365.928 54.5292C366.067 55.1177 366.294 55.6733 366.606 56.1915C366.865 56.6221 367.541 56.2298 367.281 55.7968C367.002 55.3326 366.806 54.848 366.682 54.3213C366.566 53.8313 365.813 54.0391 365.928 54.5292Z" fill="#060606"/>
<path d="M365.368 42.6937C355.63 45.6096 347.041 42.4209 346.854 42.3029C346.854 42.163 362.351 41.1783 364.516 41.0368C364.805 41.5214 365.087 42.0762 365.368 42.6937Z" fill="#060606"/>
<path d="M377.889 25.1309C377.889 35.1432 366.552 43.2602 352.567 43.2602C338.583 43.2602 327.246 35.1432 327.246 25.1309C327.246 15.117 338.583 7 352.567 7C366.552 7 377.889 15.117 377.889 25.1309Z" fill="#FCFCFC"/>
<path d="M353.559 32.4943C338.444 32.4943 327.245 27.4776 327.245 27.4776L327.253 27.4698C327.613 27.219 339.296 19.1144 353.145 19.1144C366.971 19.1144 377.03 25.9146 377.795 26.3913L377.811 26.3991H377.818L377.827 26.4062C378.279 26.6648 368.674 32.4943 353.559 32.4943Z" fill="#E1A277"/>
<path d="M377.795 26.3913C377.107 26.0631 365.908 20.8268 352.911 20.8268C339.711 20.8268 327.628 27.2744 327.253 27.4698C327.613 27.219 339.296 19.1144 353.145 19.1144C366.971 19.1144 377.03 25.9146 377.795 26.3913Z" fill="#B65D4B"/>
<path d="M334.237 27.1947L334.272 27.1728C334.646 26.9368 337.964 24.9822 341.453 24.9892C341.627 24.9892 341.802 24.9939 341.976 25.0041C343.925 25.1143 345.497 25.87 346.585 26.6023C347.128 26.9681 347.55 27.3276 347.833 27.5933C347.974 27.7262 348.08 27.8356 348.151 27.9106L348.23 27.9958L348.251 28.0216C348.391 28.1857 348.638 28.2068 348.802 28.0669C348.967 27.9278 348.988 27.6808 348.849 27.5167C348.832 27.4972 348.19 26.7422 347.021 25.9544C345.853 25.1674 344.149 24.3452 342.021 24.2233C341.831 24.2124 341.641 24.2077 341.453 24.2077C337.432 24.2163 333.848 26.5226 333.816 26.5359C333.634 26.6515 333.581 26.893 333.697 27.0751C333.813 27.2572 334.055 27.3104 334.237 27.1947Z" fill="#060606"/>
<path d="M373.311 26.5359C373.28 26.5226 369.696 24.2163 365.675 24.2077C365.486 24.2077 365.296 24.2124 365.106 24.2233C362.978 24.3452 361.274 25.1674 360.106 25.9544C358.936 26.7422 358.295 27.4972 358.279 27.5167C358.14 27.6808 358.16 27.9278 358.325 28.0669C358.489 28.2068 358.736 28.1857 358.875 28.0216L358.898 27.9958C359.152 27.7051 361.503 25.2041 365.151 25.0041C365.326 24.9939 365.5 24.9892 365.675 24.9892C367.534 24.9877 369.348 25.5379 370.69 26.0927C371.362 26.3702 371.915 26.6476 372.3 26.8547C372.491 26.9587 372.641 27.0447 372.741 27.104L372.855 27.1728L372.89 27.1947C373.073 27.3104 373.314 27.2572 373.43 27.0751C373.546 26.893 373.493 26.6515 373.311 26.5359Z" fill="#060606"/>
<path d="M332.209 18.0078C333.485 15.7851 335.794 14.215 338.049 13.099C338.499 12.8762 338.103 12.2018 337.654 12.4245C335.285 13.5968 332.874 15.2803 331.534 17.6139C331.284 18.0508 331.959 18.4455 332.209 18.0078Z" fill="#060606"/>
<path d="M340.843 11.9182C341.287 11.5923 341.761 11.3805 342.3 11.2703C342.793 11.1695 342.585 10.4161 342.093 10.5161C341.495 10.6388 340.941 10.8819 340.448 11.2429C340.046 11.5376 340.436 12.216 340.843 11.9182Z" fill="#060606"/>
<path d="M361.509 70.0823C361.509 70.0823 364.426 71.6994 368.786 70.1966C373.146 68.6945 366.9 62.6211 366.965 62.5929C367.03 62.5647 362.999 63.8249 362.97 64.0626C362.941 64.2996 361.364 67.2947 361.364 67.2947L361.509 70.0823Z" fill="#E1A277"/>
<path d="M333.288 50.7356C335.078 49.2721 336.974 47.9622 338.977 46.8068C339.413 46.5549 338.99 45.8977 338.555 46.1491C336.552 47.3045 334.656 48.6136 332.866 50.0779C332.481 50.3929 332.899 51.0537 333.288 50.7356Z" fill="#060606"/>
<path d="M366.227 62.9146L368.198 62.0544C368.802 61.7904 369.513 62.0691 369.777 62.6742C370.041 63.2785 369.762 63.9896 369.158 64.2536L367.186 65.1137C366.581 65.3777 365.871 65.099 365.607 64.4939C365.343 63.8896 365.622 63.1786 366.227 62.9146Z" fill="#E1A277"/>
<path d="M361.509 70.092L361.366 67.4152C361.366 67.4152 353.11 66.7595 348.936 61.9307C344.762 57.1012 341.274 45.5664 341.274 45.5664L333.014 51.3957C333.014 51.3957 340.818 64.6398 346.676 67.8674C352.535 71.0953 361.509 70.092 361.509 70.092Z" fill="#FCFCFC"/>
<path d="M367.114 66.484L369.687 65.4724C370.274 65.2416 370.941 65.5326 371.171 66.1189C371.402 66.7044 371.111 67.3729 370.526 67.603L367.952 68.6151C367.366 68.8461 366.698 68.5552 366.468 67.9689C366.238 67.3826 366.529 66.7148 367.114 66.484Z" fill="#E1A277"/>
<path d="M367.31 64.1918L369.312 63.4043C369.926 63.1632 370.626 63.4674 370.867 64.0821C371.109 64.6953 370.804 65.3955 370.19 65.6366L368.188 66.4242C367.574 66.6653 366.874 66.361 366.633 65.7471C366.391 65.1331 366.696 64.4329 367.31 64.1918Z" fill="#E1A277"/>
<path d="M367.999 68.1987L369.791 67.494C370.34 67.278 370.967 67.5508 371.183 68.1003C371.399 68.6499 371.127 69.2759 370.577 69.4922L368.786 70.1966C368.236 70.4132 367.61 70.1402 367.394 69.5906C367.177 69.0413 367.45 68.4147 367.999 68.1987Z" fill="#E1A277"/>
<path d="M361.264 67.3761C361.264 67.3761 362.473 63.0268 362.104 61.4014C361.736 59.7753 365.622 60.4786 364.373 64.4641C363.124 68.4497 361.264 67.3761 361.264 67.3761Z" fill="#E1A277"/>
<path d="M391.989 55.2414C391.989 55.2414 390.62 59.612 389.42 60.8341C388.221 62.0564 392.084 63.4004 393.094 59.3233C394.103 55.2462 391.989 55.2414 391.989 55.2414Z" fill="#E1A277"/>
<path d="M395.585 61.0342L396.961 62.7219C397.383 63.2398 398.174 63.3276 398.72 62.9173C399.264 62.5074 399.365 61.7486 398.943 61.2307L397.568 59.5436C397.145 59.0258 396.355 58.9387 395.81 59.349C395.265 59.7582 395.163 60.517 395.585 61.0342Z" fill="#E1A277"/>
<path d="M393.93 61.5951L395.239 63.3306C395.641 63.8623 396.428 63.9782 396.988 63.5876C397.548 63.1971 397.678 62.4421 397.276 61.9097L395.967 60.1742C395.566 59.6424 394.778 59.5266 394.218 59.9178C393.658 60.3076 393.528 61.063 393.93 61.5951Z" fill="#E1A277"/>
<path d="M396.636 58.9513L398.404 61.1209C398.807 61.6149 399.563 61.6989 400.083 61.3072C400.602 60.9158 400.699 60.1916 400.296 59.6977L398.528 57.5288C398.125 57.0348 397.369 56.9508 396.85 57.3421C396.329 57.7332 396.232 58.4574 396.636 58.9513Z" fill="#E1A277"/>
<path d="M398.347 57.9134L399.578 59.4229C399.955 59.8861 400.664 59.9645 401.151 59.5983C401.639 59.2304 401.73 58.5521 401.352 58.0887L400.12 56.5784C399.742 56.1157 399.035 56.0369 398.547 56.4038C398.059 56.771 397.969 57.4506 398.347 57.9134Z" fill="#E1A277"/>
<path d="M393.528 53.0212C393.528 53.0212 397.01 53.0875 400.12 56.5784C403.231 60.0704 394.377 62.1872 394.42 62.2448C394.463 62.3016 391.519 59.1848 391.62 58.9653C391.721 58.745 391.907 55.3605 391.907 55.3605L393.528 53.0212Z" fill="#E1A277"/>
<defs>
<filter id="filter0_d_807_12943" x="0.503906" y="83" width="699.056" height="522" filterUnits="userSpaceOnUse" color-interpolation-filters="sRGB">
<feFlood flood-opacity="0" result="BackgroundImageFix"/>
<feColorMatrix in="SourceAlpha" type="matrix" values="0 0 0 0 0 0 0 0 0 0 0 0 0 0 0 0 0 0 127 0" result="hardAlpha"/>
<feOffset dy="2"/>
<feGaussianBlur stdDeviation="5"/>
<feComposite in2="hardAlpha" operator="out"/>
<feColorMatrix type="matrix" values="0 0 0 0 0.756615 0 0 0 0 0.809616 0 0 0 0 0.9125 0 0 0 0.69 0"/>
<feBlend mode="normal" in2="BackgroundImageFix" result="effect1_dropShadow_807_12943"/>
<feBlend mode="normal" in="SourceGraphic" in2="effect1_dropShadow_807_12943" result="shape"/>
</filter>
</defs>
</svg>
