{
  "name": "main-app",
  "$schema": "../../node_modules/nx/schemas/project-schema.json",
  "sourceRoot": "apps/main-app/src",
  "projectType": "application",
  "targets": {
    "build": {
      "executor": "@nx/vite:build",
      "outputs": ["{options.outputPath}"],
      "defaultConfiguration": "production",
      "options": {
        "outputPath": "dist/apps/main-app"
      },
      "configurations": {
        "development": {
          "mode": "development"
        },
        "production": {
          "mode": "production"
        }
      }
    },
    "serve": {
      "executor": "@nx/vite:dev-server",
      "defaultConfiguration": "development",
      "options": {
        "buildTarget": "main-app:build"
      },
      "configurations": {
        "development": {
          "buildTarget": "main-app:build:development",
          "hmr": true
        },
        "production": {
          "buildTarget": "main-app:build:production",
          "hmr": false
        }
      }
    },
    "preview": {
      "executor": "@nx/vite:preview-server",
      "defaultConfiguration": "development",
      "options": {
        "buildTarget": "main-app:build"
      },
      "configurations": {
        "development": {
          "buildTarget": "main-app:build:development"
        },
        "production": {
          "buildTarget": "main-app:build:production"
        }
      }
    },
    "test": {
      "executor": "@nx/vite:test",
      "outputs": ["{workspaceRoot}/coverage/apps/main-app"],
      "options": {
        "passWithNoTests": true,
        "reportsDirectory": "../../coverage/apps/main-app"
      }
    },
    "lint": {
      "executor": "@nx/linter:eslint",
      "outputs": ["{options.outputFile}"],
      "options": {
        "lintFilePatterns": ["apps/main-app/**/*.{ts,tsx,js,jsx}"]
      }
    }
  },
  "tags": []
}
