{
  "name": "ui-components",
  "$schema": "../../node_modules/nx/schemas/project-schema.json",
  "sourceRoot": "libs/ui-components/src",
  "projectType": "library",
  "tags": [],
  "targets": {
    "lint": {
      "executor": "@nx/linter:eslint",
      "outputs": ["{options.outputFile}"],
      "options": {
        "lintFilePatterns": ["libs/ui-components/**/*.{ts,tsx,js,jsx}"]
      }
    },
    "build": {
      "executor": "@nx/vite:build",
      "outputs": ["{options.outputPath}"],
      "defaultConfiguration": "production",
      "options": {
        "outputPath": "dist/libs/ui-components"
      },
      "configurations": {
        "development": {
          "mode": "development"
        },
        "production": {
          "mode": "production"
        }
      }
    }
  }
}
